<svg xmlns="http://www.w3.org/2000/svg" width="22" height="22" version="1.1">
 <defs>
  <style id="current-color-scheme" type="text/css">
   .ColorScheme-Text { color:#f2f0e7; } .ColorScheme-Highlight { color:#4285f4; }
  </style>
 </defs>
 <path style="fill:currentColor" class="ColorScheme-Text" d="m 18.56551,3.0034891 c -0.13338,-0.013832 -0.342365,0.01732 -0.728515,0.1152471 -0.768649,0.1949282 -0.930631,0.2539411 -0.921875,0.4219215 0.0049,0.094542 0.05525,0.1792495 0.191406,0.3320679 l -0.564453,0.562562 -0.154297,-0.1543139 c -0.04221,-0.042191 -0.09726,-0.062507 -0.152344,-0.062507 -0.05508,0 -0.110137,0.020316 -0.152344,0.062507 l -0.21875,0.2187741 1.652344,1.6232259 0.205078,-0.2051007 c 0.08441,-0.084382 0.08441,-0.2203388 0,-0.3047212 L 17.57137,5.4627446 18.135823,4.8982293 c 0.146377,0.1289882 0.227098,0.1779931 0.326172,0.189474 0.161676,0.018734 0.200243,-0.1736434 0.40625,-0.9395567 0.203467,-0.7564702 0.152188,-0.8089235 -0.02539,-0.9864369 -0.08481,-0.08478 -0.143964,-0.1443891 -0.277345,-0.1582206 z M 15.506916,4.8572092 10.702229,9.662425 12.338948,11.297372 17.15926,6.480435 Z M 9.3916821,9.85776 c -0.05764,7.3e-5 -0.113981,0.02221 -0.158203,0.06641 L 4.204182,14.950115 c -0.08844,0.08841 -0.08822,0.230207 0,0.318395 l 2.523438,2.521762 c 0.08822,0.08819 0.229915,0.08841 0.318359,0 l 5.027344,-5.025945 c 0.08844,-0.08841 0.08822,-0.230207 0,-0.318395 L 9.5518381,9.92417 C 9.5077281,9.88008 9.4493211,9.85768 9.3916821,9.85776 Z M 3.719807,16.198303 3.161214,16.755004 c -0.214952,0.214873 -0.214952,0.560604 0,0.775477 l 1.308593,1.308738 c 0.214952,0.214873 0.562392,0.214873 0.777344,0 l 0.556641,-0.556702 z"/>
 <path style="fill:currentColor" class="ColorScheme-Highlight" d="m 14.637421,12.000274 a 0.61917984,0.62770775 0 0 0 -0.637485,0.627347 v 6.744484 a 0.61917984,0.62770775 0 0 0 0.928927,0.543706 l 2.880477,-1.68622 2.880825,-1.685822 a 0.61917984,0.62770775 0 0 0 0,-1.087433 l -2.880825,-1.68582 -2.880477,-1.686502 a 0.61917984,0.62770775 0 0 0 -0.291407,-0.08364 z"/>
</svg>
