<svg xmlns="http://www.w3.org/2000/svg" width="22" height="22" version="1.1">
 <defs>
  <style id="current-color-scheme" type="text/css">
   .ColorScheme-Text { color:#f2f0e7; } .ColorScheme-Highlight { color:#4285f4; }
  </style>
 </defs>
 <g transform="translate(3,-3)">
  <path opacity=".3" style="fill:currentColor" class="ColorScheme-Text" d="m8 6c-1.6621 0-3 1.3381-3 3v5.002c0 1.6619 1.3379 2.998 3 2.998s3-1.336 3-2.998v-5.002c0-1.6619-1.3379-3-3-3z"/>
  <path style="fill:currentColor" class="ColorScheme-Text" d="m2 13v0.99844c0 2.967 2 6.002 5 6.002v2h2v-2c3 0 5-3.0351 5-6.0015v-0.998h-2v0.99849c0 2.235-1.767 4.002-4 4.002-2.2334 0-4-1.767-4-4.002v-0.998h-2z"/>
 </g>
</svg>
