<svg xmlns="http://www.w3.org/2000/svg" width="22" height="22" version="1.1">
 <defs>
  <style id="current-color-scheme" type="text/css">
   .ColorScheme-Text { color:#f2f0e7; } .ColorScheme-Highlight { color:#4285f4; }
  </style>
 </defs>
 <path style="fill:currentColor" class="ColorScheme-Text" d="M 4.1425781 3 C 4.1425781 3 3 3.04269 3 4.1855469 L 3 16.857422 C 3 16.857422 2.9997211 18 4.1425781 18 L 12.423828 18 A 5 5 0 0 1 12 16 A 5 5 0 0 1 12.017578 15.65625 L 11 14.994141 L 9.1074219 16.228516 C 8.3248899 16.740989 7.2917154 16.039531 7.5683594 15.183594 L 8.2382812 13.013672 L 6.3984375 11.708984 C 5.6363015 11.169484 6.0311511 10.032155 6.9863281 10.015625 L 9.2929688 9.9726562 L 10.050781 7.6308594 C 10.1955 7.2399495 10.595627 6.9832337 11.037109 6.9980469 C 11.451328 7.0128049 11.813459 7.2640475 11.949219 7.6308594 L 12.707031 9.9726562 L 15.015625 10.015625 C 15.685129 10.028402 16.066413 10.590263 15.978516 11.111328 A 5 5 0 0 1 17 11 A 5 5 0 0 1 19 11.419922 L 19 6.171875 C 19 5.0290178 17.857422 5.0292969 17.857422 5.0292969 L 12.142578 5.0292969 L 9.8574219 3 L 4.1425781 3 z M 10.988281 7.9785156 L 10.230469 10.320312 C 10.087617 10.705746 9.723474 10.964556 9.3125 10.972656 L 7.1445312 11.013672 L 8.8164062 12.199219 C 9.1726453 12.451942 9.3236851 12.906623 9.1894531 13.322266 L 8.5527344 15.390625 C 8.5573344 15.388225 8.5541469 15.394725 8.5605469 15.390625 L 10.455078 14.15625 C 10.786909 13.940078 11.215044 13.940078 11.546875 14.15625 L 12.207031 14.585938 A 5 5 0 0 1 12.804688 13.287109 C 12.689679 12.88116 12.837321 12.444865 13.183594 12.199219 L 14.855469 11.013672 L 12.689453 10.972656 C 12.27776 10.965356 11.912643 10.706401 11.769531 10.320312 L 11.013672 7.9785156 L 11.011719 7.9785156 C 11.024139 8.0122756 11.025303 7.9988937 11.001953 7.9960938 C 10.978883 7.9983438 10.975691 8.0125256 10.988281 7.9785156 z"/>
 <path style="fill:currentColor" class="ColorScheme-Highlight" d="M 17 12 C 14.7909 12 13 13.7909 13 16 C 13 18.2091 14.7909 20 17 20 C 19.2091 20 21 18.2091 21 16 C 21 13.7909 19.2091 12 17 12 z M 16 13 L 18 13 L 18 16 L 16 16 L 16 13 z M 17 17 A 1 1 0 0 1 18 18 A 1 1 0 0 1 17 19 A 1 1 0 0 1 16 18 A 1 1 0 0 1 17 17 z"/>
</svg>
