<svg xmlns="http://www.w3.org/2000/svg" width="22" height="22" version="1.1">
 <defs>
  <style id="current-color-scheme" type="text/css">
   .ColorScheme-Text { color:#f2f0e7; } .ColorScheme-Highlight { color:#4285f4; }
  </style>
 </defs>
 <path style="fill:currentColor" class="ColorScheme-Text" d="m 2.9997525,5 0,12 2,0 0,-12 -2,0 z m 4,0 0,12 4.2519525,-0.0332 c 2.9313,-0.03263 3.207966,-0.07195 4.447266,-0.675781 2.702,-1.3165 3.979706,-4.50465 2.941406,-7.3437504 -0.686,-1.8753 -2.247328,-3.2626781 -4.236328,-3.7675781 C 13.779049,5.0210875 13.38283,5 10.95483,5 L 6.9997525,5 Z m 3,3 1.9999995,0 0,6 -1.9999995,0 0,-6 z m 2.9999995,0 2,0 0,6 -2,0 0,-6 z"/>
</svg>
