<svg xmlns="http://www.w3.org/2000/svg" width="22" height="22" version="1.1">
 <defs>
  <style id="current-color-scheme" type="text/css">
   .ColorScheme-Text { color:#f2f0e7; } .ColorScheme-Highlight { color:#4285f4; }
  </style>
 </defs>
 <path style="fill:currentColor" class="ColorScheme-Text" d="m11 3c-4.4183 0-8 3.5817-8 8 0 4.418 3.5817 8 8 8 4.418 0 8-3.582 8-8 0-4.4183-3.582-8-8-8zm3.385 4.582c0.083 0 0.165 0.0321 0.228 0.0957l0.955 0.9551c0.128 0.1274 0.128 0.3317 0 0.459l-4.185 4.1852-1.012 1.012-0.057 0.057c-0.095 0.095-0.25 0.095-0.3452 0l-0.0567-0.057-0.9551-0.955-2.8847-2.885c-0.0955-0.095-0.0955-0.25 0-0.345l1.0683-1.0688c0.0955-0.0956 0.2502-0.0956 0.3457 0l2.6567 2.6558 4.011-4.0133c0.064-0.0636 0.148-0.0957 0.231-0.0957z"/>
</svg>
