<svg xmlns="http://www.w3.org/2000/svg" width="22" height="22" version="1.1">
 <defs>
  <style id="current-color-scheme" type="text/css">
   .ColorScheme-Text { color:#f2f0e7; } .ColorScheme-Highlight { color:#4285f4; }
  </style>
 </defs>
 <g transform="translate(-177 -815.36)">
  <path style="fill:currentColor" class="ColorScheme-Text" d="m183 820.36s-2 0-2 2v6c0 2 2 2 2 2l4.9998-0.00002 2 3.0034 2-3.0034 1.0002 0.00002c1.108 0.00002 2-0.892 2-2v-6c0-2-1.9688-2-1.9688-2zm4 1h2v5h-5v-2h3z"/>
 </g>
</svg>
