<?xml version="1.0" encoding="UTF-8" standalone="no"?>
<svg
   xmlns:dc="http://purl.org/dc/elements/1.1/"
   xmlns:cc="http://creativecommons.org/ns#"
   xmlns:rdf="http://www.w3.org/1999/02/22-rdf-syntax-ns#"
   xmlns:svg="http://www.w3.org/2000/svg"
   xmlns="http://www.w3.org/2000/svg"
   xmlns:sodipodi="http://sodipodi.sourceforge.net/DTD/sodipodi-0.dtd"
   xmlns:inkscape="http://www.inkscape.org/namespaces/inkscape"
   id="svg4379"
   width="200"
   height="200"
   version="1.1"
   viewBox="0 0 200 200"
   sodipodi:docname="kde.svg"
   inkscape:version="0.92.4 5da689c313, 2019-01-14">
  <metadata
     id="metadata41">
    <rdf:RDF>
      <cc:Work
         rdf:about="">
        <dc:format>image/svg+xml</dc:format>
        <dc:type
           rdf:resource="http://purl.org/dc/dcmitype/StillImage" />
        <dc:title />
      </cc:Work>
    </rdf:RDF>
  </metadata>
  <sodipodi:namedview
     pagecolor="#2e3236"
     bordercolor="#666666"
     borderopacity="1"
     objecttolerance="10"
     gridtolerance="10"
     guidetolerance="10"
     inkscape:pageopacity="0"
     inkscape:pageshadow="2"
     inkscape:window-width="2560"
     inkscape:window-height="1403"
     id="namedview39"
     showgrid="false"
     inkscape:zoom="1.84375"
     inkscape:cx="-135.44942"
     inkscape:cy="79.141119"
     inkscape:window-x="1920"
     inkscape:window-y="0"
     inkscape:window-maximized="1"
     inkscape:current-layer="svg4379"
     showguides="false">
    <inkscape:grid
       type="xygrid"
       id="grid839" />
  </sodipodi:namedview>
  <defs
     id="defs4381" />
  <g
     transform="matrix(0.40051162,0,0,0.40051162,-53.302815,-218.88094)"
     id="layer1"
     inkscape:label="Layer 1">
    <g
       transform="matrix(0.1656724,0.98618084,0.98618084,-0.1656724,-657.7023,-504.81921)"
       id="g4149-3" />
    <g
       transform="matrix(-0.99893141,0.04621706,0.04621706,0.99893141,90.535558,-983.69843)"
       id="g4149-35-9" />
    <g
       inkscape:label="Layer 1"
       id="layer1-5"
       transform="matrix(8.5848884,0,0,8.5848884,-517.27511,-2850.3066)" />
    <g
       style="opacity:0.46799999"
       inkscape:label="Layer 1"
       id="layer1-5-3"
       transform="matrix(9.1310103,0,0,9.1310103,-530.22961,-3000.9797)" />
    <g
       inkscape:export-ydpi="90"
       inkscape:export-xdpi="90"
       style="fill:#ffffff;fill-opacity:1"
       transform="matrix(-0.80112397,1.4876447,-1.4876447,-0.80112397,1484.7425,462.66287)"
       id="g4149-35-39">
      <path
         inkscape:connector-curvature="0"
         id="path4159-62-2"
         transform="rotate(-118.30328,338.10408,-235.63948)"
         d="m -428.32422,-564.75391 c -1.42052,0.0748 -3.58998,1.19742 -5.08398,2.69532 -1.98202,1.98717 -4.74244,6.04144 -5.58789,8.20898 -0.70883,1.81729 -0.75477,4.54516 -0.0996,5.96094 0.20932,0.45232 0.56826,1.22012 0.79687,1.70508 0.22861,0.48495 0.52058,1.1785 0.64844,1.54101 0.28069,0.796 2.07204,3.51261 3.21289,4.87305 1.50056,1.78903 0.96777,1.8113 -1.50781,0.0625 -1.00241,-0.70815 -2.98384,-1.79879 -4.4043,-2.42383 -2.56322,-1.12765 -2.60827,-1.13483 -5.90234,-0.98242 -3.83485,0.17742 -5.37382,0.71589 -8.41797,2.94726 -3.1751,2.32739 -4.48798,3.96228 -5.14453,6.40821 -0.55904,2.0826 -0.55927,2.17994 -0.002,3.22656 0.31607,0.59358 1.05536,1.46228 1.64258,1.93164 0.89964,0.71904 1.31773,0.84318 2.65625,0.78125 1.33957,-0.062 1.80435,0.0734 2.95899,0.86914 1.71016,1.17862 3.61896,1.82912 5.16015,1.75781 1.64219,-0.076 4.81185,-1.48959 7.0625,-3.14843 1.03824,-0.76525 2.88238,-1.8055 4.09766,-2.31446 1.21527,-0.50896 2.50688,-1.05813 2.87109,-1.21875 0.36748,-0.16206 0.65148,-0.54628 0.63672,-0.86523 -0.0355,-0.76726 -1.87308,-2.20118 -3.32226,-2.5918 -0.6416,-0.17293 -1.30794,-0.44444 -1.48047,-0.60351 -0.55476,-0.5115 1.70471,-0.0482 3.2832,0.67382 1.61461,0.73856 2.42073,0.56844 2.72656,-0.57617 0.11443,-0.42829 0.42752,-0.62146 1.05274,-0.65039 1.07123,-0.0496 1.4034,-0.77109 0.6875,-1.49219 -0.41182,-0.41476 -0.53267,-1.14856 -0.6211,-3.78906 -0.10944,-3.26558 -0.10814,-3.26967 0.25391,-1.33984 0.54431,2.90161 1.4193,5.61505 1.97656,6.12304 0.4516,0.41168 0.56494,0.36029 1.27149,-0.57031 0.61177,-0.80523 0.74613,-0.88367 0.63672,-0.36914 -0.15777,0.74164 0.39651,1.4737 1.35156,1.78711 0.51836,0.17015 0.62887,0.40154 0.55468,1.14453 -0.0995,0.99731 -0.43853,1.22768 -0.75195,0.51172 -0.35404,-0.80873 -2.15463,-1.55032 -3.60156,-1.48437 -1.26028,0.0574 -1.49313,0.19063 -2.57617,1.48046 -1.41701,1.68755 -1.34573,2.24399 0.4707,3.72852 l 1.22266,0.99805 -1.08985,0.75 c -1.12923,0.77708 -3.11469,3.7318 -3.80468,5.66015 -0.36285,1.01406 -1.0246,1.85187 -1.04883,1.32813 -0.0381,-0.82314 1.56309,-4.49323 2.49804,-5.72656 0.87718,-1.15713 1.08259,-1.65442 0.91407,-2.21485 -0.34506,-1.14732 -1.46855,-1.1768 -3.82813,-0.0976 -3.92241,1.79393 -8.2643,6.92057 -9.64844,11.39062 -0.81541,2.63331 -0.63992,7.13378 0.41993,10.79297 0.93643,3.23327 1.48369,4.33121 2.81054,5.62695 2.04877,2.00075 4.5037,1.55612 6.00782,-1.08984 0.43784,-0.77025 1.27189,-1.69426 1.85546,-2.05273 0.58358,-0.3585 1.58799,-0.97537 2.23047,-1.36915 1.52699,-0.93589 4.1219,-3.82267 4.68164,-5.20898 0.24299,-0.60173 0.67537,-1.48314 0.96289,-1.95703 1.04901,-1.72895 1.33195,-4.06458 1.10157,-9.17383 l -0.21875,-4.8457 0.60351,1.34961 c 0.33144,0.74208 0.84098,2.27042 1.13282,3.39648 0.29181,1.12607 0.68835,2.33371 0.88085,2.68555 0.29888,0.54624 0.25759,0.53598 -0.2832,-0.0762 -0.34839,-0.39435 -0.70718,-0.63923 -0.79492,-0.54297 -0.0877,0.0963 -0.24386,0.98096 -0.34961,1.96484 -0.10578,0.98389 -0.46327,2.59156 -0.79297,3.57227 -0.56422,1.67845 -0.56804,1.83776 -0.0781,2.70703 0.28625,0.50789 0.95494,1.71321 1.48632,2.67969 0.53136,0.96647 1.78947,2.79971 2.79688,4.07421 3.08463,3.90248 3.42042,4.89673 1.2832,3.79493 -0.73447,-0.37864 -1.43089,-0.51962 -1.95312,-0.39454 -1.05977,0.25389 -1.16671,0.49854 -0.55664,1.28907 0.706,0.91487 2.96668,1.68953 4.69922,1.60937 1.43594,-0.0664 1.48798,-0.0369 2.80664,1.59571 3.01579,3.73379 8.08589,8.25281 11.77734,10.49804 0.80267,0.48823 2.17386,1.47948 3.10937,2.24024 l -0.15624,0.10742 c 0.78661,0.68675 1.56702,1.41567 2.34374,2.18359 v -3.80664 l -0.53906,0.37305 c -0.51344,-0.35131 -1.02691,-0.70494 -1.54883,-1.05274 -5.3124,-3.54014 -10.39793,-7.82908 -13.00585,-10.96875 l -1.88868,-2.27343 0.7168,-1.14063 c 0.59254,-0.94556 0.70116,-1.48678 0.625,-3.13281 -0.0506,-1.09398 -0.2313,-2.06703 -0.40234,-2.16211 -0.69541,-0.38654 -1.48019,0.28299 -1.7461,1.49023 -0.15474,0.70259 -0.38959,1.12524 -0.54492,0.98243 -0.45867,-0.42163 -1.07686,-2.77933 -1.44531,-5.52149 -0.37511,-2.79201 -0.47682,-2.97939 -3.27344,-5.92383 -1.18659,-1.24931 -1.83317,-2.3695 -1.54687,-2.68359 0.0763,-0.0837 0.73792,0.54502 1.46875,1.39648 1.95036,2.27241 3.83124,3.32565 6.35937,3.56055 3.08727,0.28686 3.78235,0.55865 5.49024,2.15625 1.77959,1.66471 4.4591,3.31514 5.68554,3.50195 1.5488,0.23593 4.02887,-1.63844 4.63867,-3.5039 0.56942,-1.74196 -0.17014,-8.62985 -1.0332,-9.61914 -0.1385,-0.15877 -0.51818,-0.88319 -0.8457,-1.61133 -1.90432,-4.23367 -6.83673,-8.93142 -10.2461,-9.75977 -2.50967,-0.60974 -5.44379,-0.92936 -7.7832,-0.84375 -2.43844,0.0892 -2.51115,0.0755 -1.66992,-0.375 1.05123,-0.56296 5.80984,-0.56827 7.05273,-0.008 1.03503,0.46673 4.34997,0.86026 6.4375,0.76367 1.72277,-0.0797 4.34985,-1.25597 6.61914,-2.95898 0.51083,-0.38335 1.30421,-0.97447 1.76172,-1.31445 0.16726,-0.12429 0.4208,-0.27947 0.66406,-0.42969 v -8.80469 c -0.79122,-0.63291 -1.68465,-1.11087 -2.93945,-1.61523 -2.57692,-1.03583 -5.04034,-1.44492 -7.90234,-1.3125 -2.68216,0.12409 -6.20141,0.92885 -7.23633,1.65625 -0.31995,0.22488 -1.23803,0.69271 -2.03906,1.03906 -2.37821,1.02828 -5.71766,4.27166 -7.26172,7.05078 -0.53559,0.96412 -0.62085,1.01972 -0.65625,0.42773 -0.0418,-0.6878 0.31088,-1.36352 2.60156,-4.99414 0.69778,-1.10593 1.26207,-2.12482 1.25586,-2.26367 -0.006,-0.13882 0.24443,-0.60669 0.55469,-1.04101 0.47574,-0.66598 0.5427,-1.24288 0.42969,-3.68555 -0.0737,-1.59305 -0.26674,-3.02045 -0.42774,-3.16992 -0.88855,-0.82492 -2.22718,-3.71645 -2.49609,-5.39453 -0.16463,-1.02736 -0.44949,-2.15445 -0.63477,-2.50391 -0.37885,-0.71461 -2.1116,-1.80955 -3.21679,-2.0332 -0.16822,-0.0341 -0.35565,-0.0436 -0.5586,-0.0332 z m 72.49805,10.70508 -36.93555,3.53516 v 152.08594 l 36.54297,-5.50196 v -64.84375 l 49.12305,71.92188 38.51172,-12.18555 -50.30274,-69.16797 50.69727,-65.23633 -39.29688,-9.03515 -48.73242,65.23437 z m -60.71289,14.24219 c 0.29691,-0.003 0.24866,0.0912 -0.13867,0.2793 -0.80744,0.39213 -1.27949,0.41452 -0.74805,0.0351 0.23984,-0.17121 0.63907,-0.312 0.88672,-0.31445 z m -5.83203,6.35352 c 0.59613,0.009 0.48433,0.16895 -0.30079,0.50976 -0.48542,0.21074 -0.66444,0.46783 -0.5332,0.76758 0.10857,0.24803 0.29633,0.44508 0.41797,0.43945 0.50172,-0.0232 4.00273,2.22436 4.33594,2.78321 0.45793,0.76801 0.007,0.80534 -0.73242,0.0605 -1.11951,-1.1276 -6.82889,-2.28291 -7.2793,-1.47265 -0.0944,0.1698 -0.5359,0.30664 -0.98047,0.30468 -0.6709,-0.003 -0.70045,-0.0281 -0.16602,-0.1582 0.35417,-0.0862 1.20899,-0.81823 1.89844,-1.625 1.07968,-1.26339 1.42632,-1.48161 2.50391,-1.57031 0.35735,-0.0294 0.63723,-0.042 0.83594,-0.0391 z m -19.07227,46.73046 c -2.41319,0.10665 -7.85715,4.52857 -8.81641,7.16016 -0.71002,1.94788 0.0363,8.27649 1.20704,10.24023 0.45792,0.76788 0.58207,2.84805 0.15625,2.61133 -0.16954,-0.0942 -0.32175,-0.48972 -0.33985,-0.88086 -0.0381,-0.824 -2.64728,-5.51124 -3.68945,-6.6289 -0.38909,-0.41729 -1.30576,-1.02742 -2.03711,-1.35352 -1.1817,-0.5269 -1.49834,-0.54851 -2.83203,-0.19726 -1.2351,0.32524 -1.6252,0.31921 -2.21485,-0.0293 -2.41478,-1.42724 -5.70091,1.81798 -5.10156,5.03711 0.40366,2.16784 1.85011,5.07102 3.53125,7.08398 2.04123,2.44414 4.01408,3.44186 7.08594,3.58594 1.74415,0.0818 1.984,0.16081 1.64453,0.5332 -0.21864,0.23983 -1.16777,0.78929 -2.11133,1.22461 -0.94353,0.43534 -1.83288,1.04727 -1.97656,1.35742 -0.14368,0.31016 -0.56039,1.05569 -0.92383,1.65625 -0.36341,0.60055 -0.8454,2.01976 -1.07031,3.1543 -0.36254,1.8287 -0.34674,2.44116 0.12891,5.39063 0.7968,4.94097 2.09866,6.45033 4.55664,5.28711 0.57892,-0.27398 1.60867,-1.05562 2.28906,-1.73829 0.68039,-0.68266 1.63985,-1.47376 2.13476,-1.75586 0.49489,-0.28207 1.35264,-1.06195 1.9043,-1.73242 0.82269,-0.9999 1.02432,-1.53761 1.12305,-2.99804 0.16205,-2.39764 0.52067,-2.90827 0.6582,-0.9375 0.1477,2.11688 1.67515,5.79178 2.98633,7.1875 0.57739,0.61462 1.81978,1.59713 2.76172,2.18359 1.52258,0.94797 1.96302,1.06952 3.97656,1.10547 2.63269,0.047 4.55329,-0.61879 5.46875,-1.90039 0.71009,-0.994 0.67758,-1.88695 -0.12305,-3.30078 -0.34466,-0.60854 -0.76192,-1.97498 -0.92773,-3.03516 -0.28774,-1.83973 -0.38563,-2.00651 -2.15625,-3.6875 -1.16271,-1.10388 -2.60925,-2.1003 -3.87305,-2.66992 -1.87987,-0.8473 -3.1603,-1.96532 -3.65625,-3.18945 -0.42301,-1.04408 -1.08673,-0.52047 -1.21679,0.95898 -0.17298,1.96772 -0.28898,2.24615 -0.37891,0.9082 -0.0501,-0.74591 -0.24274,-1.18822 -0.56445,-1.29492 -0.59515,-0.19734 -0.91046,0.2978 -1.26954,1.99414 -0.3774,1.78323 -0.90201,2.07105 -0.66601,0.36524 0.26262,-1.89829 0.17112,-3.35258 -0.2207,-3.4668 -0.18625,-0.0542 -1.07065,0.55555 -1.96485,1.35547 -0.89419,0.79992 -1.63026,1.37661 -1.63476,1.27929 -0.0173,-0.37456 0.96491,-1.88106 1.6289,-2.49804 0.41631,-0.38683 0.63948,-0.87926 0.55664,-1.22656 -0.11352,-0.47617 -0.46257,-0.59356 -1.9414,-0.65821 -1.84281,-0.0806 -1.81355,-0.19716 0.23633,-0.96875 1.56625,-0.58956 1.61594,-1.09718 0.14453,-1.46484 -1.14916,-0.28716 -3.74297,-2.31145 -3.41797,-2.66797 0.0836,-0.0917 0.69787,0.23086 1.36523,0.71875 2.17286,1.5885 3.81407,1.90342 4.17969,0.80078 0.0792,-0.23866 0.34139,-0.44394 0.58203,-0.45508 0.95646,-0.0443 1.33777,-0.95883 1.24414,-2.98242 -0.0503,-1.08706 -0.009,-1.90024 0.0918,-1.80859 0.10061,0.0917 0.20642,0.81833 0.23828,1.61523 0.0758,1.91732 0.9493,3.96144 1.67773,3.92774 0.30822,-0.0143 0.7355,-0.42992 0.97071,-0.94141 0.23126,-0.50284 1.16793,-1.7951 2.08008,-2.87305 0.91217,-1.07792 1.79944,-2.2378 1.97265,-2.57617 0.26997,-0.52742 0.29722,-0.47497 0.17969,0.36719 -0.1006,0.72068 -0.0289,0.97783 0.27344,0.96484 0.22661,-0.0105 0.036,0.25912 -0.42383,0.59375 -0.45984,0.33463 -1.52281,1.47106 -2.36133,2.52735 -2.22558,2.80357 -2.01996,3.61586 1.24805,4.93164 2.05661,0.82804 1.73863,1.43105 -0.46094,0.87304 -0.76786,-0.19479 -1.56536,-0.34737 -1.77148,-0.33984 -0.68013,0.0254 -0.32558,1.38912 0.54882,2.11133 3.58014,2.95694 7.75003,4.34314 10.38868,3.45312 0.59892,-0.20202 1.68779,-0.56518 2.41992,-0.80664 0.73212,-0.24148 1.66005,-0.62482 2.0625,-0.85156 0.40245,-0.22671 1.0678,-0.50016 1.47656,-0.60547 0.40875,-0.1053 1.27956,-0.75585 1.93555,-1.44726 0.92708,-0.97714 1.25775,-1.62352 1.48242,-2.90235 0.38449,-2.1883 0.10155,-2.95373 -1.54688,-4.18164 -1.03533,-0.77122 -1.7861,-1.06821 -2.98242,-1.17578 -1.06785,-0.096 -2.04359,-0.43598 -2.93945,-1.02539 -0.73748,-0.48522 -1.80837,-1.01186 -2.38086,-1.17188 -0.57247,-0.15998 -1.04937,-0.48898 -1.06055,-0.73046 -0.0317,-0.68564 3.3469,-4.53655 5.27735,-6.01368 0.95807,-0.73305 1.82195,-1.33735 1.91797,-1.34179 0.0959,-0.004 0.21001,1.02662 0.2539,2.28906 0.089,2.55936 0.51454,3.09946 1.17188,1.48828 1.33261,-3.26629 1.76939,-4.45976 1.89843,-5.17383 0.0795,-0.43968 0.37123,-0.89817 0.64844,-1.01953 0.27723,-0.12133 2.32425,-0.45029 4.54883,-0.73047 5.37584,-0.67703 12.34972,-0.29671 18.38476,0.80664 v -2.09375 c -6.78544,-1.32933 -15.78634,-1.38224 -20.91992,-0.0664 l -2.90234,0.74414 -1.27734,-0.83594 c -1.14051,-0.74827 -1.50942,-0.82743 -3.47852,-0.73633 -2.50352,0.11583 -2.82996,0.53494 -1.24414,1.59766 0.50469,0.3382 0.85807,0.72235 0.78516,0.85351 -0.0729,0.13119 -0.89994,0.43096 -1.83594,0.66602 -2.60193,0.65339 -7.06883,2.39312 -7.45313,2.90234 -0.56051,0.74268 -0.95433,0.55342 -0.81054,-0.39062 0.0732,-0.48042 -0.18022,-1.96399 -0.56446,-3.29688 -0.49853,-1.72918 -0.61924,-2.58843 -0.42383,-2.99804 0.89321,-1.87208 -1.09113,-4.14751 -3.52148,-4.03907 z m 4.42188,11.94141 c 0.0206,-0.006 0.0407,-0.003 0.0645,0.01 0.34074,0.18941 0.48052,1.61499 0.23047,2.36914 -0.27172,0.81947 -0.39386,0.55302 -0.4668,-1.02344 -0.0378,-0.81763 0.0277,-1.31466 0.17188,-1.35547 z m -7.85938,11.21094 c -0.24392,0.0101 -0.5096,0.0745 -0.80078,0.1914 -0.98584,0.39564 -1.32575,1.34145 -0.95117,2.64649 0.52094,1.81509 2.31113,2.3914 3.47265,1.11719 0.68441,-0.75082 0.68811,-1.12592 0.0332,-2.50977 -0.48107,-1.0166 -1.02211,-1.47517 -1.75391,-1.44531 z m 45.17774,7.91406 c -0.43207,0.006 -0.5741,0.40948 -0.43946,1.21094 l 0.15235,0.90429 -1.26368,-0.46875 c -1.05001,-0.39019 -1.32772,-0.39071 -1.65625,-0.01 -0.29968,0.34751 -0.2981,0.62409 0.008,1.14648 0.68356,1.16731 0.61526,1.52643 -0.32032,1.6836 -1.15598,0.19419 -1.77545,1.05569 -1.24804,1.73828 0.21599,0.27955 0.64548,0.59889 0.95508,0.71094 0.45081,0.16317 0.50376,0.29175 0.25781,0.64062 -0.52102,0.73905 -0.25021,1.07633 1.15429,1.43945 0.95407,0.24666 2.061,0.23489 3.76368,-0.041 0.2426,-0.0393 0.34391,-0.0422 0.54296,-0.0703 v -7.91016 c -0.87539,-0.64355 -1.51587,-0.98016 -1.90624,-0.97461 z m -26.33008,4.34375 c -0.13709,0.023 -0.41185,0.52633 -0.61328,1.11914 -0.5738,1.68861 0.29319,4.92396 1.91015,7.11524 1.58648,2.14993 3.16893,3.39878 6.53125,5.16015 1.46903,0.76955 3.47418,1.85362 4.45508,2.4082 2.15809,1.22014 5.11898,2.17387 7.36719,2.37305 0.95789,0.0849 3.09872,-0.0939 5.05078,-0.42187 1.87146,-0.3144 3.40827,-0.44764 3.43359,-0.29688 0.0523,0.31099 -1.23838,1.00182 -2.93164,1.57031 -1.08317,0.36366 -4.85337,1.92647 -8.91015,3.69336 -0.98676,0.42977 -3.07824,1.01601 -4.64844,1.30078 -1.5702,0.28478 -3.00209,0.65191 -3.1836,0.81641 -0.55621,0.50412 -0.46302,-0.22492 0.16602,-1.29101 0.81682,-1.38436 1.13103,-3.32251 0.63867,-3.93555 -0.31294,-0.38968 -0.61042,-0.40123 -1.625,-0.0703 l -1.24219,0.40429 -0.0371,-1.17969 c -0.078,-2.35474 -1.54846,-2.98965 -2.64062,-1.13867 -0.69763,1.18233 -1.18545,1.37068 -1.33008,0.50977 -0.30019,-1.78693 -1.73548,-2.0695 -2.50195,-0.49219 -0.28118,0.57862 -0.78871,1.06418 -1.25391,1.19922 -0.93054,0.27011 -1.85948,2.0809 -1.66406,3.24414 0.072,0.42863 0.42813,1.4438 0.79102,2.25586 0.82972,1.85676 0.56038,1.93572 -1.74414,0.51563 -1.90004,-1.17086 -3.27633,-1.59606 -3.48829,-1.07618 -0.0717,0.17577 -0.0251,0.67728 0.10157,1.11328 0.22698,0.78133 0.2023,0.79848 -1.60547,1.19141 -2.14372,0.46597 -2.27395,0.88033 -0.64453,2.04102 0.57016,0.40615 1.04703,0.7964 1.05859,0.86523 0.0116,0.0688 -0.62921,0.2337 -1.42383,0.36719 -1.17436,0.19728 -1.48979,0.14127 -1.6875,-0.29883 -0.13378,-0.2978 -0.81702,-0.80326 -1.51758,-1.12305 -2.18795,-0.99877 -3.56294,-1.69701 -4.44531,-2.25586 -1.51657,-0.96054 -2.56714,-1.27685 -6.1875,-1.87304 -6.13576,-1.01042 -6.92124,-1.4751 -7.5957,-4.47657 -0.57775,-2.57109 -0.1366,-4.54589 1.34179,-5.98437 1.87908,-1.82834 0.89363,-2.37433 -1.16992,-0.64844 -0.70216,0.58728 -1.47791,1.71414 -2.03906,2.96289 -0.79403,1.76699 -0.86967,2.2181 -0.62109,3.67969 0.52382,3.07586 2.98857,7.08225 5.29492,8.60742 1.46358,0.96786 4.44668,2.271 4.99023,2.17969 0.1938,-0.0326 1.17748,0.18787 2.18555,0.49023 2.40814,0.72231 6.07761,0.71225 7.67969,-0.0215 0.64659,-0.29616 1.21048,-0.50094 1.25195,-0.45508 0.0415,0.0459 0.37374,0.41944 0.73828,0.83008 0.36454,0.41064 1.25972,0.89747 1.99024,1.08203 l 1.32812,0.33594 -0.90234,0.51367 c -1.81422,1.03314 -0.3852,2.16146 2.66797,2.10742 1.24125,-0.022 2.68394,-0.55949 3.86718,-1.4414 0.37704,-0.28102 0.3401,-0.072 -0.14062,0.83984 -0.35253,0.66869 -1.1105,1.56565 -1.68555,1.99219 -1.76984,1.31273 -2.12694,4.09276 -0.44531,3.46875 0.72895,-0.27049 0.74525,-0.25249 1.04687,1.54297 0.33587,1.99926 0.74715,2.35031 1.80469,1.5332 0.53287,-0.41171 0.68993,-0.38697 1.30664,0.2168 1.48719,1.45596 2.72838,1.20695 3.15235,-0.63477 0.26896,-1.16838 0.67932,-1.27422 1.7539,-0.45703 1.78558,1.35787 2.73263,-0.15322 2.19922,-3.50586 -0.27334,-1.71823 -0.53535,-2.30831 -1.97265,-4.41016 -2.34246,-3.42543 -2.27401,-3.66837 0.55078,-1.97461 1.6311,0.97803 1.88651,1.034 3.71679,0.82032 1.74662,-0.20389 2.05652,-0.33244 2.79883,-1.15821 0.77204,-0.85892 1.13072,-0.99445 4.74024,-1.78906 2.14749,-0.47276 4.54569,-1.10365 5.32812,-1.40234 1.64171,-0.62674 2.37554,-1.40458 1.74805,-1.85157 -0.30519,-0.21743 -0.86925,-0.11268 -2.34766,0.43555 -1.07018,0.39688 -3.41966,1.02954 -5.22265,1.40625 l -3.27735,0.68555 -1.40234,-0.89844 -1.4043,-0.89453 -2.7832,0.61719 c -2.32447,0.51662 -2.73638,0.54349 -2.51367,0.16015 0.14659,-0.25235 0.48333,-0.49387 0.74804,-0.53906 0.26474,-0.0451 1.01165,-0.58163 1.66211,-1.19141 1.40604,-1.31809 1.59024,-1.38206 1.51367,-0.52734 -0.12737,1.42198 1.10828,1.29402 6.30469,-0.65039 5.0272,-1.8811 9.87232,-3.9491 13.87109,-5.89063 v -3.59374 c -2.77432,0.51153 -5.12834,0.27576 -8.30468,-0.61719 -0.92625,-0.2604 -2.12591,-0.88208 -2.66602,-1.38281 -3.58482,-3.32355 -4.95591,-4.10277 -8.6289,-4.90235 -3.78399,-0.82376 -4.89943,-1.47801 -6.45508,-3.78125 -1.04021,-1.5401 -1.45773,-2.46492 -1.66016,-3.66992 -0.14883,-0.88594 -0.38438,-1.59139 -0.52148,-1.56836 z m 28.23632,5.16797 c -0.23392,0.0866 -0.37165,0.14801 -0.66601,0.25 -1.06844,0.3702 -2.32901,1.03946 -2.80078,1.48633 -1.0292,0.97484 -1.12033,2.06077 -0.18555,2.19336 0.77233,0.10954 0.88422,0.5331 0.35938,1.35351 -0.52756,0.82466 -0.13396,1.3787 1.00781,1.41406 0.86089,0.0267 0.95976,0.13027 1.13672,1.1836 0.10668,0.63502 0.38287,1.25817 0.61328,1.38476 0.0822,0.0452 0.28803,0.0643 0.53515,0.0703 v -9.33594 z m 0,19.07031 c -0.3928,0.25357 -0.65603,0.79237 -0.57226,1.29102 0.10995,0.65448 -0.14205,0.70687 -1.75781,0.35547 -0.69779,-0.15175 -1.45689,-0.1661 -1.68555,-0.0312 -0.52886,0.31169 -0.39005,1.15743 0.30273,1.86132 0.68631,0.6973 0.5006,0.93585 -0.91601,1.17383 -1.42032,0.23861 -1.60337,0.84351 -0.56641,1.88086 0.98664,0.98699 0.98757,1.09076 0.0117,1.25977 -1.33826,0.23191 -2.08929,0.68916 -2,1.2207 0.0873,0.51982 2.04946,2.11216 2.50781,2.03516 0.14341,-0.0241 0.29494,0.15631 0.33594,0.40039 0.041,0.24408 -0.10983,0.47406 -0.33398,0.51172 -0.22416,0.0376 -0.51996,0.26201 -0.65821,0.5 -0.67471,1.16139 1.76197,1.74775 5.00391,1.20312 0.12681,-0.0213 0.20618,-0.0227 0.32812,-0.041 v -13.6211 z m -27.0957,4.83008 c 0.35988,0.0214 0.71261,0.35221 0.80274,0.88867 0.0935,0.55635 -0.0106,0.76594 -0.37305,0.75586 -0.56445,-0.0157 -1.05965,-0.47635 -1.12305,-0.91406 -0.0212,-0.14589 0.004,-0.28845 0.0918,-0.41211 0.16568,-0.2326 0.38564,-0.33118 0.60156,-0.31836 z m -2.48828,3.76953 c 0.0748,0.0165 0.10145,0.0559 0.0605,0.11328 -0.0818,0.11484 -0.33459,0.16671 -0.5625,0.11719 -0.12594,-0.0274 -0.17429,-0.0614 -0.14844,-0.0977 0.0259,-0.0364 0.12571,-0.0755 0.29687,-0.11132 0.1549,-0.0326 0.27867,-0.038 0.35352,-0.0215 z m 21.21094,1.72461 c -0.33171,0.007 -0.56292,0.2597 -1.16797,0.92969 -0.53583,0.59335 -1.1042,1.10082 -1.25977,1.12695 -0.15557,0.0261 -0.75957,0.53147 -1.34375,1.125 -1.2506,1.27065 -7.85627,6.19617 -8.46093,6.30859 -0.22928,0.0426 -1.13192,0.45834 -2.00586,0.92383 -1.60636,0.85562 -5.14538,1.69849 -7.33008,1.74414 -0.62462,0.0131 -2.64833,-0.22281 -4.49805,-0.52343 -2.93926,-0.47769 -3.90627,-0.49228 -7.66015,-0.0957 -4.18628,0.44227 -4.3602,0.43667 -6.9004,-0.33594 -1.43346,-0.43599 -2.85882,-0.91154 -3.16796,-1.05664 -0.8274,-0.38833 -0.95265,0.0511 -0.27149,0.95899 0.99598,1.32744 4.10441,3.1331 5.96289,3.46289 0.93703,0.16629 2.53196,0.61939 3.54492,1.00391 1.01297,0.38453 2.09004,0.65629 2.39258,0.60546 0.30253,-0.0508 0.84345,0.0441 1.20117,0.20899 1.01278,0.46682 3.35868,0.54727 5.4043,0.1875 3.50638,-0.61673 9.96711,-3.00337 11.55078,-4.26758 0.29778,-0.2377 1.05666,-0.61402 1.68555,-0.83594 0.62889,-0.22191 2.39347,-1.30765 3.92187,-2.41211 2.86901,-2.0732 4.07145,-2.4848 2.04297,-0.69921 -0.63324,0.55741 -1.37779,1.29854 -1.65429,1.64453 -0.7004,0.87639 -7.22621,5.56542 -9.0918,6.5332 -0.84645,0.4391 -2.02366,1.18618 -2.61328,1.66016 -0.58962,0.47398 -1.97639,1.3843 -3.08203,2.02343 -1.30654,0.75527 -1.98167,1.32334 -1.93164,1.6211 0.0632,0.37599 0.32205,0.38107 1.44922,0.0312 l 1.37304,-0.42578 -1.13281,1.39648 c -0.62388,0.76806 -1.22155,1.4164 -1.32813,1.44141 -0.10659,0.025 -0.38091,-0.4916 -0.60937,-1.15039 -0.30019,-0.86565 -0.86069,-1.53908 -2.02149,-2.42579 -2.97359,-2.2715 -5.00282,-2.31999 -4.63085,-0.10937 0.0645,0.38305 -0.1748,0.52633 -1.06836,0.64258 -0.63318,0.0823 -1.45038,0.0511 -1.81641,-0.0723 -0.52169,-0.17576 -0.7499,-0.10873 -1.05273,0.31641 -0.50362,0.70699 -0.42344,1.05834 0.48046,2.10156 l 0.7461,0.86523 -1.03906,0.17579 c -1.38534,0.23272 -1.51391,0.95092 -0.32618,1.83593 0.50299,0.37478 0.93204,0.78463 0.95313,0.91016 0.0842,0.50125 -7.50933,0.97246 -9.75195,0.60547 -0.49879,-0.0816 -2.14466,0.0621 -3.65821,0.31641 -3.86973,0.65009 -5.4814,0.52082 -6.88867,-0.54493 -1.1392,-0.86271 -1.71717,-0.89569 -1.6543,-0.11523 0.009,0.11149 0.0311,0.24003 0.0664,0.38476 0.21101,0.86615 1.97616,2.45217 3.34375,3.00586 0.47955,0.19417 1.25519,0.62656 1.72461,0.96094 0.60275,0.42936 1.33509,0.58632 2.49414,0.53711 2.52369,-0.1072 8.96191,-1.22101 9.73633,-1.68555 0.37998,-0.22795 1.40595,-0.63493 2.28125,-0.90234 0.87529,-0.26741 2.11573,-0.91607 2.75586,-1.44336 1.19168,-0.98161 1.80685,-1.10313 3.69726,-0.72461 1.43981,0.2883 0.67562,0.9111 -1.95117,1.58789 -2.59936,0.66973 -3.81727,1.53707 -3.50976,2.50196 0.14885,0.46719 0.54551,0.62674 1.73046,0.69921 0.84525,0.0517 1.37907,0.13539 1.1875,0.1836 -0.48587,0.12239 -1.44763,2.70053 -1.17773,3.1582 0.12181,0.2066 0.57304,0.31158 1.00195,0.23242 1.09889,-0.20358 3.3149,-1.24132 3.76367,-1.76172 0.5024,-0.58255 0.79763,-0.32181 1,0.88282 0.20844,1.24059 0.85644,1.4193 2.07032,0.56836 1.35939,-0.95298 2.18877,-2.7725 2.06445,-4.5293 -0.058,-0.81977 -0.006,-1.50886 0.11523,-1.5293 0.29081,-0.0489 0.85018,1.44499 1.10157,2.94141 0.13798,0.82135 0.48712,1.46069 1.11914,2.05273 1.11002,1.03981 1.04975,1.32275 -0.79883,3.76953 -1.41906,1.87828 -3.99755,3.613 -6.54102,4.40235 -1.39992,0.43446 -2.35885,0.22217 -9.76562,-2.16992 -2.76891,-0.89425 -3.67478,-0.83279 -5.35156,0.35742 -1.56954,1.11408 -1.93477,2.39278 -1.04492,3.66211 0.57623,0.82201 0.58137,0.93236 0.11328,1.78906 -0.69257,1.26751 -0.46034,2.11309 0.82617,3.00781 1.96778,1.36852 4.09373,1.26874 6.47461,-0.30078 0.85831,-0.56582 2.49096,-1.44092 3.6289,-1.94531 1.14948,-0.5095 2.39902,-1.30332 2.81055,-1.78711 0.52454,-0.61666 1.38613,-1.09069 2.95313,-1.62109 2.25492,-0.76328 3.00614,-0.75938 2.25586,0.01 -0.2303,0.23606 -1.69405,1.93937 -3.25196,3.78711 l -2.83203,3.35937 -1.82812,0.37696 c -1.00574,0.20645 -2.35888,0.48271 -3.00586,0.61523 -0.64699,0.13252 -2.04678,0.32045 -3.10938,0.41602 -1.6648,0.14978 -2.06745,0.29605 -2.91601,1.05469 -1.1529,1.03077 -2.10917,2.72848 -2.20118,3.90429 -0.0896,1.14497 1.42122,3.00698 2.48047,3.05664 1.40621,0.0659 1.51023,0.1232 1.7461,0.9375 0.55511,1.91654 4.68741,2.25783 6.26953,0.51758 0.88343,-0.97173 1.98984,-3.54366 1.85937,-4.32031 -0.0535,-0.31855 0.45006,-1.39368 1.11914,-2.39063 0.87313,-1.30098 1.17765,-2.05039 1.07617,-2.65429 -0.10477,-0.62366 0.19611,-1.31012 1.16211,-2.64844 0.71681,-0.99309 1.38534,-1.81897 1.48633,-1.83594 0.10101,-0.017 0.10284,0.62152 0.002,1.41797 -0.10079,0.79642 -0.0562,2.21742 0.10156,3.15625 0.2071,1.2328 0.16903,1.8729 -0.14258,2.30664 -1.70051,2.36697 -1.74455,4.30763 -0.13477,5.99024 1.06178,1.1098 1.2128,1.67888 0.85743,3.20117 -0.21514,0.92132 -0.15966,1.29197 0.34961,2.33789 0.5245,1.07716 0.8278,1.3139 2.29492,1.79297 1.17304,0.38304 2.1369,0.47884 3.13867,0.31054 1.24455,-0.20907 1.58306,-0.41959 2.44922,-1.51367 0.81844,-1.03382 1.09666,-1.21836 1.49609,-0.98633 1.17168,0.68068 3.59729,-1.31748 4.33399,-3.57226 0.63618,-1.94718 -1.14628,-4.15811 -3.92383,-4.86719 -1.51596,-0.387 -2.25054,-0.90128 -3.4668,-2.42969 -0.74101,-0.93119 -2.08772,-1.40452 -4.0625,-1.42383 -1.88904,-0.0185 -1.9391,-0.0404 -2.19336,-0.98828 -0.29769,-1.10984 0.64339,-4.79588 1.73047,-6.77148 0.36971,-0.67189 0.77605,-1.48335 0.90039,-1.80274 0.29564,-0.75931 1.16767,-0.58398 1.71094,0.34376 0.29636,0.50608 0.35076,1.08279 0.18945,2.02929 -0.33737,1.97974 -0.20507,2.28083 1.64258,3.6875 0.9344,0.71141 1.97772,1.66739 2.31641,2.125 0.92282,1.24691 3.18986,2.57383 4.44336,2.59766 0.60525,0.0115 1.83993,-0.16889 2.74218,-0.39844 1.3371,-0.34024 1.74682,-0.58932 2.20899,-1.35351 0.87719,-1.45044 0.43183,-2.04408 -1.65625,-2.20899 -0.81953,-0.0647 -0.73515,-0.12287 0.73047,-0.52148 1.62627,-0.44231 2.8212,-1.33427 3.29101,-2.45703 0.334,-0.7982 -0.78026,-2.80396 -2.06445,-3.71876 -1.23708,-0.88121 -3.27635,-1.09928 -6.01953,-0.64453 -1.28817,0.21337 -2.1438,0.13689 -3.61328,-0.32226 -1.05862,-0.33076 -2.14771,-0.5002 -2.42188,-0.37695 -0.52373,0.23527 -1.53695,-0.56162 -1.66211,-1.30665 -0.0387,-0.23015 0.64069,-1.54556 1.51172,-2.92382 1.1556,-1.82853 1.78097,-2.53962 2.3125,-2.62891 0.54222,-0.0911 0.76823,-0.36218 0.88672,-1.05664 0.15525,-0.91 0.18309,-0.92485 1.08008,-0.63672 1.16564,0.37437 2.63227,0.13951 2.75,-0.44141 0.0497,-0.245 -0.2531,-0.90966 -0.67188,-1.47461 -0.41879,-0.56491 -0.77641,-1.11635 -0.79492,-1.22656 -0.0185,-0.1102 0.42648,-0.36865 0.98633,-0.57422 1.14668,-0.42103 1.43373,-1.12287 0.76953,-1.87304 -0.39608,-0.44735 -0.19684,-0.86914 1.72461,-3.66992 2.53442,-3.69434 3.5799,-5.3752 4.47851,-7.20508 1.7747,-3.61383 3.11748,-4.48411 2.05274,-1.33008 -0.28812,0.85351 -0.30975,1.76772 -0.0781,3.14648 0.30761,1.83108 0.27549,2.01167 -0.52929,3.07422 -0.46993,0.62045 -0.88293,1.50806 -0.91992,1.97266 -0.0909,1.14151 1.08504,3.08616 2.43554,4.02539 0.59078,0.41086 1.02241,0.81916 0.95899,0.9082 -0.0634,0.089 -1.87779,0.52751 -4.03321,0.97266 -2.15541,0.44514 -3.97132,0.88109 -4.03515,0.9707 -0.29863,0.41923 0.5987,1.3902 1.41406,1.5293 0.50051,0.0854 0.927,0.25237 0.94727,0.37305 0.0203,0.12064 -0.36497,0.73129 -0.85547,1.35546 -1.10605,1.40745 -0.91401,2.06497 0.63672,2.1836 0.96431,0.0738 1.16085,0.19771 1.11523,0.70703 -0.11967,1.33586 1.53363,1.60738 2.7793,0.45508 0.80251,-0.74236 1.2776,-0.55979 1.46679,0.5664 0.27571,1.6412 1.07997,1.30712 2.61329,-1.08789 l 1.40039,-2.18554 0.26171,1.56054 c 0.25503,1.51808 1.18656,3.20139 1.72266,3.11133 0.14587,-0.0245 0.63965,-0.6656 1.0957,-1.42383 0.73897,-1.22856 0.86019,-1.31793 1.11133,-0.82812 0.35335,0.68914 1.86505,1.8717 2.29883,1.79883 0.17878,-0.03 0.43974,-0.55262 0.58203,-1.16211 0.14228,-0.6095 0.32452,-1.11941 0.4043,-1.13282 0.0798,-0.0134 0.68773,0.15743 1.34961,0.38086 2.07786,0.70144 2.36256,0.33736 1.1914,-1.52148 -0.75181,-1.19342 -0.832,-1.51871 -0.27929,-1.125 0.22806,0.16246 0.92536,0.20825 1.54883,0.10351 1.2469,-0.20947 1.63038,-0.87733 0.8789,-1.52539 -0.36067,-0.31103 -0.36896,-0.49958 -0.0488,-1 0.68939,-1.07762 0.33426,-1.53597 -1.5957,-2.05664 -1.54945,-0.41801 -2.0954,-0.42302 -3.53125,-0.0352 -1.78395,0.4819 -2.63016,0.42333 -2.00586,-0.13672 0.19728,-0.17698 1.76412,-0.55791 3.48242,-0.84961 3.07231,-0.5212 3.13704,-0.54856 3.81641,-1.54688 l 0.69141,-1.01367 -0.84571,-0.22461 c -0.79289,-0.21184 -0.82399,-0.27205 -0.51562,-0.97461 0.29265,-0.66664 0.26834,-0.79143 -0.21094,-1.13281 -0.29592,-0.21081 -0.73957,-0.34809 -0.98633,-0.30664 -0.35948,0.0604 -0.44817,-0.16802 -0.44726,-1.14258 0,-0.009 -0.002,-0.0161 -0.002,-0.0254 l -1.08594,0.16797 v -1.57812 c -0.37458,-0.0342 -0.85563,-0.0123 -1.50585,0.0684 -0.29089,0.0361 -0.71255,-0.24418 -0.93555,-0.625 -0.32304,-0.55163 -0.60872,-0.6584 -1.41211,-0.52343 -0.80875,0.13586 -1.16911,0.43312 -1.81055,1.5039 -1.46605,2.44738 -1.87462,3.36938 -1.99023,4.48828 -0.16012,1.54969 -0.50231,1.12555 -0.88672,-1.0957 -0.28825,-1.66754 -0.44288,-1.97208 -1.32422,-2.6289 -0.54844,-0.40874 -1.40653,-0.83764 -1.9082,-0.95313 -0.78457,-0.18061 -0.93887,-0.37159 -1.10547,-1.36328 -0.18619,-1.10829 0.0533,-4.84039 0.41211,-6.43555 0.0949,-0.42194 0.90162,-2.19015 1.79492,-3.92969 0.89329,-1.73953 1.78964,-3.57508 1.99219,-4.07812 0.20255,-0.50304 0.78799,-1.88023 1.30078,-3.06055 0.51279,-1.18032 0.90566,-2.30016 0.87305,-2.48828 -0.0325,-0.18812 -0.5098,-0.50731 -1.06055,-0.70898 -0.37313,-0.13663 -0.60762,-0.22075 -0.80664,-0.2168 z m 8.37304,4.53711 c -1.48464,0.76392 -2.19016,1.34195 -2.9746,2.44922 -0.57479,0.8113 -1.0219,1.61806 -0.99219,1.79492 0.0297,0.17685 0.56986,0.44292 1.19922,0.58984 1.12916,0.2636 1.14443,0.28511 1.16797,1.62305 0.0231,1.31589 0.0945,1.42485 1.5996,1.4082 z m -11.69921,0.14453 c 0.0284,-0.0145 0.0454,-0.0125 0.0488,0.008 0.0137,0.0814 -0.2006,0.43401 -0.47656,0.78321 -0.27595,0.34922 -0.51563,0.56768 -0.52929,0.48632 -0.0137,-0.0814 0.20255,-0.43401 0.47851,-0.7832 0.20697,-0.26192 0.39325,-0.4506 0.47852,-0.49414 z m 62.57226,3.80274 c -1.83842,0.12057 -4.00366,1.3765 -4.40429,2.6875 -0.3626,1.18642 -0.0368,4.31573 0.69335,6.64062 0.70072,2.23117 0.64638,2.97569 -0.43164,5.88281 -0.88278,2.38061 -0.74697,4.53152 0.45703,7.27344 0.45115,1.02741 0.73155,1.89519 0.62305,1.92773 -0.40707,0.1221 -1.13756,-0.94614 -1.75,-2.55664 -1.44341,-3.7957 -1.56749,-3.96872 -3.92187,-5.51562 -2.31233,-1.51932 -4.17203,-3.09737 -4.35352,-3.69336 -0.0615,-0.20185 0.42273,-0.22914 1.12305,-0.0644 1.20335,0.28296 2.14698,-0.13353 2.09961,-0.92774 -0.0116,-0.19535 -0.81117,-0.78153 -1.77539,-1.30078 -1.4508,-0.78128 -1.98486,-0.91773 -3.09375,-0.79297 l -0.23633,0.0274 -2.96485,0.45703 c 0.2047,0.65405 0.0612,0.97288 -0.38671,1.80468 -0.82234,1.52705 -1.10301,3.89915 -0.58399,4.93164 0.44848,0.89221 0.71469,0.90204 1.40235,0.0566 0.33885,-0.4166 0.51356,-1.1076 0.49023,-1.9336 -0.0679,-2.40355 0.68291,-1.66931 2.86523,2.80078 0.71272,1.45989 1.81978,3.38776 2.46094,4.28516 0.64115,0.89743 1.43759,2.02208 1.77149,2.5 0.57147,0.81796 0.71734,0.88545 2.47461,1.10351 1.02676,0.12742 2.63175,0.49947 3.56445,0.83008 0.93267,0.33064 1.79712,0.57258 1.92187,0.53516 0.12476,-0.0374 0.0582,-0.4664 -0.14648,-0.95117 -0.31768,-0.75251 -0.30831,-0.79301 0.0547,-0.28711 0.23381,0.32585 1.15034,1.20646 2.03906,1.95703 0.88871,0.75056 2.04683,1.87019 2.57226,2.49023 l 0.95508,1.12696 -4.27343,-2.29297 c -4.50586,-2.41967 -6.73343,-3.17754 -8.7461,-2.98047 -0.55166,0.054 -1.53207,0.063 -2.17969,0.0215 -1.49198,-0.0956 -5.21988,0.99357 -6.7246,1.96485 -0.63314,0.40867 -1.62343,1.04712 -2.19922,1.41797 -0.57579,0.37085 -1.77042,0.72394 -2.6543,0.78515 -3.03633,0.21031 -4.49856,2.23035 -3.58203,4.94336 0.59356,1.75704 1.34439,2.72482 3.85351,4.96875 2.83963,2.53958 6.82208,4.64575 9.54883,5.05078 4.62865,0.68757 11.1281,-1.00654 14.44336,-3.76562 1.99432,-1.65977 2.45514,-2.68443 1.57031,-3.49219 -0.43222,-0.39454 -0.96779,-0.42451 -2.39062,-0.13477 -1.51653,0.30886 -5.51863,0.16219 -6.24414,-0.22851 -0.46162,-0.24859 0.57921,-0.48305 1.65039,-0.37109 2.03698,0.21288 5.56063,-0.29703 6.75,-0.97852 l 1.14648,-0.6582 0.37305,1.53515 c 0.55178,2.28009 1.0216,2.58384 3.15625,2.03711 1.63158,-0.41786 1.85184,-0.56849 2.44922,-1.67968 0.68587,-1.27577 0.79643,-3.22135 0.2207,-3.89063 -0.50969,-0.59249 -0.15498,-0.79712 0.78711,-0.45508 0.70186,0.25482 0.86207,0.45517 0.79102,0.9961 -0.13096,0.99659 0.29051,1.81329 1.02734,1.99218 0.51119,0.12414 0.38135,0.20926 -0.60937,0.41211 -1.14476,0.23401 -1.24002,0.31509 -1.06446,0.90039 0.21666,0.72227 2.28412,2.68477 4.66407,4.43164 1.58284,1.16186 1.57792,1.16285 -1.31836,-0.34961 -2.34192,-1.22288 -2.95091,-1.65038 -3.14649,-2.20117 -0.34007,-0.95752 -1.13412,-0.96957 -1.64258,-0.0254 -0.29676,0.55107 -0.60735,0.7483 -1.04297,0.66602 -1.16418,-0.21986 -1.66594,0.43379 -1.69921,2.20898 -0.0326,1.73547 -0.5916,3.97347 -0.8125,3.25196 -0.0687,-0.22442 -0.0262,-0.94249 0.0957,-1.59571 0.27529,-1.47544 -0.22218,-3.75301 -0.89844,-4.11719 -0.28112,-0.15138 -0.7495,-0.0619 -1.05469,0.19922 -0.30246,0.25878 -1.35686,1.18542 -2.34179,2.06055 -0.98493,0.87513 -2.72203,2.08682 -3.86133,2.69141 -2.46971,1.3106 -5.11508,3.5565 -5.89453,5.0039 -0.73152,1.3584 -0.97243,3.36026 -0.65039,5.41211 0.21741,1.38533 0.13972,1.86229 -0.4961,3.04297 -0.63532,1.17976 -0.70593,1.61017 -0.44726,2.73242 0.16886,0.73254 0.63302,1.77451 1.03125,2.31641 0.70216,0.9555 0.78887,0.99877 2.9082,1.39648 2.48907,0.46711 4.53133,-0.009 8.00391,-1.86328 3.32935,-1.77802 4.48058,-2.93249 6.30078,-6.3125 1.56352,-2.90337 1.57669,-2.94539 1.66992,-5.74414 0.0516,-1.55103 -0.073,-3.8113 -0.27734,-5.02148 -0.50464,-2.98867 -0.25599,-3.45921 0.70703,-1.33203 0.7324,1.61738 2.40789,4.41017 3.0039,5.00781 0.27142,0.2722 0.76925,0.83397 1.10743,1.25 0.33817,0.41603 0.87429,1.07252 1.1914,1.45703 0.99257,1.20351 3.47099,2.34241 5.41602,2.49023 2.3199,0.17631 7.17093,-0.55611 9.82031,-1.48242 1.99706,-0.69823 3.94847,-2.16789 4.63086,-3.41601 0.0972,-0.17845 0.17078,-0.35122 0.21289,-0.51758 0.27688,-1.09308 0.0387,-3.12841 -0.44141,-3.7793 -0.23479,-0.31831 -1.12761,-1.06502 -1.98242,-1.6582 -1.39624,-0.96892 -3.42234,-3.42784 -3.78125,-4.58594 -0.065,-0.20984 -1.26778,-0.99973 -2.67187,-1.75586 -2.15295,-1.1594 -2.70347,-1.3495 -3.50977,-1.20898 -0.52583,0.0916 -1.0553,0.11457 -1.17773,0.0488 -0.12248,-0.0657 -1.28693,0.002 -2.58594,0.15235 -4.26445,0.49303 -5.02506,0.51908 -5.62695,0.18359 -0.51831,-0.2882 -0.43104,-0.34086 0.66992,-0.40625 3.17365,-0.18865 7.54346,-1.79555 9.5,-3.49414 0.659,-0.57211 1.47712,-1.19762 1.81836,-1.38867 1.10375,-0.61798 3.35387,-3.44261 4.62695,-5.80664 1.35844,-2.52254 2.05635,-4.9181 2.23828,-7.68945 0.16657,-2.53699 -0.11309,-3.88396 -1.26562,-6.10938 -1.57507,-3.04131 -3.46928,-3.66893 -5.67578,-1.88086 -0.51516,0.41747 -1.34895,0.97695 -1.85352,1.24219 -0.50455,0.26522 -1.3825,0.72307 -1.94922,1.01758 -2.5176,1.30829 -4.71354,3.16711 -5.53125,4.68554 -0.99084,1.83994 -2.07223,4.99971 -2.09961,6.13477 -0.0329,1.36302 -2.096,5.64964 -3.05859,6.35352 -0.77025,0.56328 -0.75329,0.49148 0.38281,-1.66797 1.09,-2.07174 2.07443,-4.85461 2.61133,-7.38086 0.72936,-3.43191 -1.37336,-9.91142 -4.36524,-13.46094 -0.51456,-0.61048 -1.00082,-1.26736 -1.08398,-1.46094 -0.51811,-1.20629 -6.40784,-4.85483 -8.22461,-5.0957 -0.2432,-0.0322 -0.49909,-0.0387 -0.76172,-0.0215 z m -65.27344,2.38476 c 0.2375,0.0339 0.0878,0.63099 -0.55078,1.82813 -1.44369,2.70665 -5.03533,8.41946 -7.0625,11.23828 -1.12709,1.56723 -2.01405,3.05236 -1.97265,3.29883 0.0903,0.53764 -0.30866,0.63664 -1.25977,0.31445 -0.3875,-0.13127 -1.11801,-0.25303 -1.62305,-0.27149 -0.61079,-0.0223 -0.93129,-0.20198 -0.95312,-0.45507 -0.0218,-0.25309 0.25392,-0.58123 0.83594,-0.89258 1.27338,-0.68119 1.61539,-1.49684 1.33203,-3.1836 -0.13146,-0.7825 -0.13453,-1.4416 -0.008,-1.46289 0.67841,-0.11397 7.2573,-6.07695 8.63867,-7.83008 1.37119,-1.74018 2.3177,-2.62754 2.62304,-2.58398 z m -7.47461,5.52734 c 0.36182,-0.0404 -0.88617,1.07665 -2.90039,2.59571 -1.84179,1.38906 -3.88242,2.25247 -3.85351,1.67578 0.002,-0.0384 0.0122,-0.0813 0.0332,-0.13281 0.2133,-0.52319 5.94294,-4.05182 6.7207,-4.13868 z m 33.85352,5.375 -4.5625,0.70704 c 1.02895,3.66306 2.59774,6.14111 4.83203,7.58593 2.61581,1.69155 6.163,2.8772 8.52344,2.84961 4.75465,-0.0556 7.34845,-0.60748 5.60937,-1.19336 -0.34801,-0.11724 -0.83085,-0.18118 -1.07226,-0.14062 -0.76607,0.12869 -3.50597,-0.85412 -4.42774,-1.58985 -1.9746,-1.57606 -3.29678,-2.98066 -3.95117,-4.19335 -0.39853,-0.73857 -1.2099,-1.60919 -1.92187,-2.0625 -1.41303,-0.89969 -2.32012,-1.48848 -3.0293,-1.9629 z m -44.81445,4.97266 c 0.11974,0.007 0.25098,0.0556 0.38672,0.15234 0.41609,0.29639 0.24184,1.10074 -0.2793,1.29493 -0.36865,0.13737 -0.53028,-0.0104 -0.625,-0.57422 -0.0911,-0.54245 0.15834,-0.8938 0.51758,-0.87305 z m 25.37695,3.65039 c 0.59276,-0.0996 0.65854,0.72516 0.0918,1.14844 -0.58006,0.43321 -1.23463,0.34785 -1.32227,-0.17383 -0.0675,-0.40154 0.50143,-0.85213 1.23047,-0.97461 z m 65.49414,2.85352 c 0.0942,-0.0115 0.24247,0.10723 0.42774,0.38672 0.35948,0.54229 0.869,4.67106 0.63086,5.11328 -0.0578,0.10721 0.0383,0.36311 0.21484,0.56836 0.21337,0.24807 0.5237,0.1979 0.92383,-0.14844 0.64711,-0.56016 0.83807,-0.59195 0.58789,-0.0508 -0.0834,0.18038 -0.21523,0.42695 -0.39649,0.73633 -0.54648,0.93296 -0.89372,1.15185 -2.5,1.57812 -1.02573,0.27221 -2.05416,0.72393 -2.28515,1.00586 -0.34865,0.42543 -0.36012,0.38922 -0.0723,-0.2168 0.19071,-0.40158 0.50528,-0.73842 0.69922,-0.75 0.92538,-0.0552 2.35599,-5.70383 1.82422,-7.20117 -0.21952,-0.61815 -0.21165,-1.00229 -0.0547,-1.02148 z m 11.0586,3.16406 c 0.0522,-5.3e-4 0.046,0.066 -0.0195,0.19922 -0.10942,0.22218 -0.4098,0.52198 -0.66796,0.66406 -0.57207,0.3148 -0.34759,-0.10208 0.35546,-0.66016 0.16863,-0.13385 0.27977,-0.20259 0.33204,-0.20312 z M -446,-370.69141 c 0.21698,-0.0365 0.32072,0.0393 0.23047,0.16602 -0.0903,0.1267 -0.26588,0.15666 -0.39258,0.0664 -0.0317,-0.0226 -0.0507,-0.0474 -0.0586,-0.0703 -0.0225,-0.069 0.058,-0.13477 0.2207,-0.16211 z m 0.3418,10.3125 c 0.44464,0.0387 0.11719,0.58235 -0.82618,1.29493 -0.59396,0.44815 -1.09813,0.69321 -1.12304,0.54492 -0.063,-0.37471 1.21927,-1.74162 1.71094,-1.82422 0.0954,-0.016 0.17476,-0.0212 0.23828,-0.0156 z m 19.87695,5.79493 c 0.0936,-0.1332 0.844,0.96867 0.95508,1.40234 0.0308,0.1203 -0.0613,0.23952 -0.20508,0.26367 -0.19972,0.0336 -0.61972,-0.78066 -0.74414,-1.29492 -0.0415,-0.17143 -0.0495,-0.30901 -0.006,-0.37109 z"
         style="fill:#ffffff;fill-opacity:1" />
    </g>
  </g>
</svg>
