<svg xmlns="http://www.w3.org/2000/svg" width="24" height="24" version="1.1">
 <defs>
  <style id="current-color-scheme" type="text/css">
   .ColorScheme-Text { color:#f2f0e7; } .ColorScheme-Highlight { color:#4285f4; }
  </style>
 </defs>
 <path style="fill:currentColor" class="ColorScheme-Text" d="m 7.0000051,11 a 1,1 0 0 0 -1,1 1,1 0 0 0 0.00586,0.111328 c 0.063706,2.435063 2.1932095,4.425359 4.9941409,4.814453 V 18 H 8.0000051 a 1,1 0 0 0 -1,1 1,1 0 0 0 1,1 h 8.0000009 a 1,1 0 0 0 0.999999,-1 1,1 0 0 0 -0.999999,-1 h -3 v -1.074219 c 2.804683,-0.389615 4.935899,-2.386668 4.99414,-4.826172 A 1,1 0 0 0 18.000005,12 a 1,1 0 0 0 -1,-1 1,1 0 0 0 -0.999999,1 h -0.01563 c -0.08353,2.067786 -1.410965,3 -3.984369,3 -2.5735991,0 -3.9008543,-0.932214 -3.9843759,-3 h -0.015625 a 1,1 0 0 0 -1.000001,-1 z"/>
 <path style="opacity:0.3;fill:currentColor" class="ColorScheme-Text" d="M 12.000003,4 C 9.7840026,4 8.0000026,5.8594509 8.0000026,8.1679688 V 9.832031 c 0,2.308518 1.784,4.167969 4.0000004,4.167969 2.216,0 4,-1.859451 4,-4.167969 V 8.1679688 C 16.000003,5.8594509 14.216003,4 12.000003,4 Z m -2,3 h 1 v 4 h -1 z m 3,0 h 1 v 4 h -1 z"/>
</svg>
