<svg xmlns="http://www.w3.org/2000/svg" width="24" height="24" version="1.1">
 <defs>
  <style id="current-color-scheme" type="text/css">
   .ColorScheme-Text { color:#f2f0e7; } .ColorScheme-Highlight { color:#4285f4; }
  </style>
 </defs>
 <g transform="translate(-524,438)">
  <path style="fill:currentColor" class="ColorScheme-Text" d="m 534,-427 -6,4.5 6,4.5 c -0.004,-0.003 0,-1.3333 0,-2 l 3,0 0,-2.1875 0,-0.8125 0,-2 -3,0 z"/>
  <path style="fill:currentColor" class="ColorScheme-Text" d="m 538,-424 6,-4.5 -6,-4.5 c 0.004,0.003 0,1.3333 0,2 l -3,0 0,2.1875 0,0.8125 0,2 3,0 z"/>
 </g>
</svg>
