<svg xmlns="http://www.w3.org/2000/svg" width="24" height="24" version="1.1">
 <defs>
  <style id="current-color-scheme" type="text/css">
   .ColorScheme-Text { color:#f2f0e7; } .ColorScheme-Highlight { color:#4285f4; }
  </style>
 </defs>
 <g transform="translate(-224 -524.36)">
  <path style="fill:currentColor" class="ColorScheme-Text" d="m231 529.36s-2 0-2 2.0625v9.9375c0 2 2 2 2 2h10c2 0 2-2 2-2v-10s0-2-2-2zm3.0002 2 5.9998-0.00002 0.0002 2h-6v2h4v2h-4v2h6v2h-6s-2 0-2-2v-6c0-2 2-2 2-2z"/>
 </g>
</svg>
