<svg xmlns="http://www.w3.org/2000/svg" width="24" height="24" version="1.1">
 <defs>
  <style id="current-color-scheme" type="text/css">
   .ColorScheme-Text { color:#f2f0e7; } .ColorScheme-Highlight { color:#4285f4; }
  </style>
 </defs>
 <path style="stroke-linejoin:round;stroke:currentColor;fill:none" class="ColorScheme-Text" d="m17 20.5-2.5 0v-4l2.5-0m-2.5 2h2.5"/>
 <path style="stroke-linejoin:round;stroke:currentColor;fill:none" class="ColorScheme-Text" d="m18.5 16v3l1 1.5 1-1.5-0-3"/>
</svg>
