<svg xmlns="http://www.w3.org/2000/svg" width="24" height="24" version="1.1">
 <defs>
  <style id="current-color-scheme" type="text/css">
   .ColorScheme-Text { color:#f2f0e7; } .ColorScheme-Highlight { color:#4285f4; }
  </style>
 </defs>
 <path style="opacity:0.3;fill:currentColor" class="ColorScheme-Text" d="M 4,6 4,18 6,18 6,6 Z m 4,0 0,12 4.2528,-0.03231 c 2.9313,-0.03263 3.2079,-0.07305 4.4472,-0.67688 2.702,-1.3165 3.9783,-4.5042 2.94,-7.3433 -0.686,-1.8753 -2.246,-3.2637 -4.235,-3.7686 -0.625,-0.1586 -1.022,-0.1792 -3.45,-0.1792 z"/>
</svg>
