<svg xmlns="http://www.w3.org/2000/svg" width="24" height="24" version="1">
 <defs>
  <style id="current-color-scheme" type="text/css">
   .ColorScheme-Text { color:#f2f0e7; } .ColorScheme-Highlight { color:#4285f4; }
  </style>
 </defs>
 <path style="fill:currentColor" class="ColorScheme-Text" d="M -22.069,-4.0812"/>
 <path style="fill:currentColor" class="ColorScheme-Text" d="M 8,4 A 4,4 0 0 0 4,8 4,4 0 0 0 5.1152,10.7695 7,7 0 0 0 5,12 7,7 0 0 0 12,19 7,7 0 0 0 13.238,18.887 4,4 0 0 0 16,20 4,4 0 0 0 20,16 4,4 0 0 0 18.885,13.23 7,7 0 0 0 19,12 7,7 0 0 0 12,5 7,7 0 0 0 10.7617,5.1133 4,4 0 0 0 8,4 Z m 4.127,4 c 1.9736,0 2.9922,1.0424 2.9922,1.6543 0,0.61395 -0.29491,0.70508 -0.7793,0.70508 -0.94131,0 -0.5552,-1.1328 -2.3184,-1.1328 -0.58345,0 -1.3125,0.26546 -1.3125,0.94726 0,0.5481 0.6457,0.75005 1.7852,1.0312 1.718,0.46 3.006,0.919 3.006,2.496 0,1.531 -1.247,2.299 -3.221,2.299 -1.9733,0 -3.2341,-1.181 -3.2341,-1.793 0,-0.6119 0.23241,-0.76562 0.7168,-0.76562 0.94281,0 0.81697,1.2891 2.5801,1.2891 0.5855,0 1.4492,-0.26732 1.4492,-0.95117 0,-0.54605 -0.04607,-0.73496 -1.2969,-1.0723 -1.336,-0.181 -3.494,-0.616 -3.494,-2.2832 0,-1.5309 1.1554,-2.4218 3.129,-2.4218 l -0.002,-0.002 z"/>
 <circle style="fill:currentColor" class="ColorScheme-Highlight" cx="20" cy="5" r="2"/>
</svg>
