<svg xmlns="http://www.w3.org/2000/svg" width="24" height="24" version="1.1">
 <defs>
  <style id="current-color-scheme" type="text/css">
   .ColorScheme-Text { color:#f2f0e7; } .ColorScheme-Highlight { color:#4285f4; }
  </style>
 </defs>
 <path style="fill:none;stroke:currentColor;stroke-width:2;stroke-linecap:round;stroke-linejoin:round" class="ColorScheme-Text" d="m 4.0142425,8.9999 8.9999995,0 c 0,0 2,0 2,-2 0,-2 -2,-2 -2,-2"/>
 <path style="fill:none;stroke:currentColor;stroke-width:2;stroke-linecap:round;stroke-linejoin:round" class="ColorScheme-Text" d="m 9.0142425,11.9999 9.0000005,0 c 0,0 2,0 2,-2 0,-1.9999999 -2,-1.9999999 -2,-1.9999999"/>
 <path style="fill:none;stroke:currentColor;stroke-width:2;stroke-linecap:round;stroke-linejoin:round" class="ColorScheme-Text" d="m 4.0142425,14.9999 9.0000005,0 c 0,0 2,0 2,2 0,2 -2,2 -2,2"/>
</svg>
