<svg xmlns="http://www.w3.org/2000/svg" width="16" height="16" version="1.1">
 <path style="fill:#f2f0e7" d="M 3,2 C 2.45,2 2,2.446 2,3 V 13 C 2,13.554 2.45,14 3,14 H 13 C 13.55,14 14,13.554 14,13 V 3 C 14,2.446 13.55,2 13,2 Z M 7,5 H 9 V 11 H 7 V 7 H 6 V 6 C 6,6 7,6 7,5 Z"/>
</svg>
