<svg xmlns="http://www.w3.org/2000/svg" width="24" height="24" version="1.1">
 <defs>
  <style id="current-color-scheme" type="text/css">
   .ColorScheme-Text { color:#f2f0e7; } .ColorScheme-Highlight { color:#4285f4; }
  </style>
 </defs>
 <g transform="matrix(1,0,0,1,4,4)">
  <path style="fill:currentColor" class="ColorScheme-Text" d="M 5,14 C 5,14 5.8,16 8,16 10.2,16 11,14 11,14 Z M 8,0 C 4,0 2,3.122 2,7 2,9 0,11 0,12.5 0,12.5 0,13 1.4,13 H 14.6 C 16,13 16,12.5 16,12.5 16,11 14,10 14,7 14,3.122 12,0 8,0 Z"/>
 </g>
</svg>
