<svg xmlns="http://www.w3.org/2000/svg" width="24" height="24" version="1.1">
 <defs>
  <style id="current-color-scheme" type="text/css">
   .ColorScheme-Text { color:#f2f0e7; } .ColorScheme-Highlight { color:#4285f4; }
  </style>
 </defs>
 <g transform="translate(4,4)">
  <path style="fill:currentColor" class="ColorScheme-Text" d="M 9.5,0 5.5,15.754 6.5,16 10.5,0.246 Z M 4.2539,3 0,8 4.2539,13 6,12.291 2.3359,8 6,3.709 Z M 11.746,3 10,3.709 13.664,8 10,12.291 11.746,13 16,8 Z"/>
 </g>
</svg>
