<svg xmlns="http://www.w3.org/2000/svg" width="24" height="24" version="1.1" viewBox="0 0 24 24">
 <defs>
  <style id="current-color-scheme" type="text/css">
   .ColorScheme-Text { color:#f2f0e7; } .ColorScheme-Highlight { color:#4285f4; }
  </style>
 </defs>
 <path style="fill:currentColor" class="ColorScheme-Text" d="m 5,6 v 2 h 6 V 6 Z m 8,0 v 2 h 6 V 6 Z M 5,9 v 2 h 6 V 9 Z m 8,0 v 2 h 6 V 9 Z m -8,3 v 2 h 6 v -2 z m 8,0 v 2 h 6 v -2 z m -8,3 v 2 h 6 v -2 z m 8,0 v 2 h 6 v -2 z"/>
</svg>
