<svg xmlns="http://www.w3.org/2000/svg" width="24" height="24" version="1.1">
 <defs>
  <style id="current-color-scheme" type="text/css">
   .ColorScheme-Text { color:#f2f0e7; } .ColorScheme-Highlight { color:#4285f4; }
  </style>
 </defs>
 <g transform="translate(4,4)">
  <path style="fill:currentColor" class="ColorScheme-Text" d="M 6.4414 5 L 3 15 L 5 15 L 5.7148 13 L 9.2852 13 L 10 15 L 12 15 L 8.5586 5 L 6.4414 5 z M 7.5 8 L 8.5723 11 L 6.4277 11 L 7.5 8 z"/>
 </g>
</svg>
