<svg xmlns="http://www.w3.org/2000/svg" width="24" height="24" version="1.1">
 <defs>
  <style id="current-color-scheme" type="text/css">
   .ColorScheme-Text { color:#f2f0e7; } .ColorScheme-Highlight { color:#4285f4; }
  </style>
 </defs>
 <g transform="matrix(1,0,0,1,4,4)">
  <circle class="ColorScheme-Text" cx="2" cy="8" r="2" style="fill:currentColor"/>
  <path class="ColorScheme-Text" d="M 16,7 H 9 L 12.5,3.5 11,2 5,8 11,14 12.5,12.5 9,9 H 16 Z" style="fill:currentColor"/>
 </g>
</svg>
