<svg xmlns="http://www.w3.org/2000/svg" width="24" height="24" version="1.1">
 <defs>
  <style id="current-color-scheme" type="text/css">
   .ColorScheme-Text { color:#f2f0e7; } .ColorScheme-Highlight { color:#4285f4; }
  </style>
 </defs>
 <g transform="translate(4,4)">
  <path style="fill:currentColor" class="ColorScheme-Text" d="M 12.292,3 3,12.292 V 13 H 3.708 L 13,3.708 V 3 Z"/>
  <path style="fill:currentColor" class="ColorScheme-Text" d="M 0,11 H 5 V 16 H 0 Z M 11,0 H 16 V 5 H 11 Z"/>
 </g>
</svg>
