<svg xmlns="http://www.w3.org/2000/svg" width="24" height="24" version="1.1">
 <defs>
  <style id="current-color-scheme" type="text/css">
   .ColorScheme-Text { color:#f2f0e7; } .ColorScheme-Highlight { color:#4285f4; }
  </style>
 </defs>
 <g transform="translate(4,4)">
  <path style="fill:currentColor" class="ColorScheme-Text" d="M 0,7 3,3 6,6 9,2 10.75,7.5 13,4 16,7 V 12 L 12,8 11,13 9,9 5,13 3,8 0,12 Z"/>
 </g>
</svg>
