<svg xmlns="http://www.w3.org/2000/svg" width="24" height="24" version="1.1">
 <defs>
  <style id="current-color-scheme" type="text/css">
   .ColorScheme-Text { color:#f2f0e7; } .ColorScheme-Highlight { color:#4285f4; }
  </style>
 </defs>
 <g transform="matrix(1,0,0,1,4,4)">
  <path style="opacity:0.3;fill:currentColor" class="ColorScheme-Text" d="M 1,4 H 12 V 12 H 1 Z"/>
  <path style="fill:currentColor" class="ColorScheme-Text" d="M 1,3 C 1,3 0,3 0,4 V 12 C 0,13 1,13 1,13 H 3 V 14 C 3,15 4,15 4,15 H 9 C 9,15 10,15 10,14 V 13 H 12 C 12,13 13,13 13,12 V 4 C 13,3 12,3 12,3 Z M 2,5 H 11 V 11 H 2 Z"/>
  <path style="fill:currentColor" class="ColorScheme-Text" d="M 4,0 C 4,0 3,0 3,1 V 2 H 14 V 10 H 15 C 15,10 16,10 16,9 V 1 C 16,0 15,0 15,0 Z"/>
 </g>
</svg>
