<svg xmlns="http://www.w3.org/2000/svg" width="32" height="32" version="1">
 <rect style="opacity:0.2" width="25" height="16" x="3" y="12" rx="1.25" ry="1.25"/>
 <path style="fill:#ec6c85" d="M 3,21.75 C 3,22.442 3.5575,23 4.25,23 H 26.75 C 27.442,23 28,22.442 28,21.75 V 8.25 C 28,7.5575 27.442,7 26.75,7 H 14 V 6.25 C 14,5.5575 13.443,5 12.75,5 H 4.25 C 3.5575,5 3,5.5575 3,6.25"/>
 <rect style="opacity:0.2" width="25" height="16" x="3" y="10" rx="1.25" ry="1.25"/>
 <rect style="fill:#e4e4e4" width="21" height="10" x="5" y="9" rx="1.25" ry="1.25"/>
 <rect style="fill:#ec6c85" width="25" height="16" x="3" y="11" rx="1.25" ry="1.25"/>
 <path style="opacity:0.1;fill:#ffffff" d="M 4.25 5 C 3.5575 5 3 5.5575 3 6.25 L 3 7.25 C 3 6.5575 3.5575 6 4.25 6 L 12.75 6 C 13.443 6 14 6.5575 14 7.25 L 14 8 L 26.75 8 C 27.442 8 28 8.5575 28 9.25 L 28 8.25 C 28 7.5575 27.442 7 26.75 7 L 14 7 L 14 6.25 C 14 5.5575 13.443 5 12.75 5 L 4.25 5 z"/>
 <g>
  <circle style="fill:#695055;stroke:#ec6c85;stroke-width:0.5;stroke-linecap:round;stroke-linejoin:round" cx="17.5" cy="18" r="2.25"/>
  <circle style="fill:#695055;stroke:#ec6c85;stroke-width:0.5;stroke-linecap:round;stroke-linejoin:round" cx="22" cy="22" r="1.25"/>
  <circle style="fill:#695055;stroke:#ec6c85;stroke-width:0.5;stroke-linecap:round;stroke-linejoin:round" cx="19.25" cy="20.75" r="2.5"/>
  <circle style="fill:#695055;stroke:#ec6c85;stroke-width:0.5;stroke-linecap:round;stroke-linejoin:round" cx="10" cy="21" r="2.25"/>
  <circle style="fill:#695055;stroke:#ec6c85;stroke-width:0.5;stroke-linecap:round;stroke-linejoin:round" cx="12.25" cy="16.25" r="1.5"/>
  <circle style="fill:#695055;stroke:#ec6c85;stroke-width:0.5;stroke-linecap:round;stroke-linejoin:round" cx="12.5" cy="19" r="2.75"/>
  <circle style="fill:#695055;stroke:#ec6c85;stroke-width:0.5;stroke-linecap:round;stroke-linejoin:round" cx="12.25" cy="22" r="1.25"/>
  <circle style="fill:#695055;stroke:#ec6c85;stroke-width:0.5;stroke-linecap:round;stroke-linejoin:round" cx="14.75" cy="16.75" r="2.5"/>
  <circle style="fill:#695055;stroke:#ec6c85;stroke-width:0.5;stroke-linecap:round;stroke-linejoin:round" cx="15.5" cy="20" r="3.25"/>
 </g>
</svg>
