<svg xmlns="http://www.w3.org/2000/svg" width="32" height="32" version="1">
 <rect style="opacity:0.2" width="25" height="16" x="3" y="12" rx="1.25" ry="1.25"/>
 <path style="fill:#ec6c85" d="m3 21.75c0 0.692 0.5575 1.25 1.25 1.25h22.5c0.692 0 1.25-0.558 1.25-1.25v-13.5c0-0.6925-0.558-1.25-1.25-1.25h-12.75v-0.75c0-0.6925-0.557-1.25-1.25-1.25h-8.5c-0.6925 0-1.25 0.5575-1.25 1.25"/>
 <rect style="opacity:0.2" width="25" height="16" x="3" y="10" rx="1.25" ry="1.25"/>
 <rect style="fill:#e4e4e4" width="21" height="10" x="5" y="9" rx="1.25" ry="1.25"/>
 <rect style="fill:#ec6c85" width="25" height="16" x="3" y="11" rx="1.25" ry="1.25"/>
 <path style="opacity:0.1;fill:#ffffff" d="m4.25 5c-0.6925 0-1.25 0.5575-1.25 1.25v1c0-0.6925 0.5575-1.25 1.25-1.25h8.5c0.693 0 1.25 0.5575 1.25 1.25v0.75h12.75c0.692 0 1.25 0.5575 1.25 1.25v-1c0-0.6925-0.558-1.25-1.25-1.25h-12.75v-0.75c0-0.6925-0.557-1.25-1.25-1.25h-8.5z"/>
 <path style="fill:#695055" d="M 17,14 C 16.781,14.081 16.556,14.187 16.375,14.337 15.512,15.031 16.156,16.288 17,17 V 19 C 17.631,19.437 17.777,19.58 18.15,20 18.34,20.214 18.869,20.756 19,21 V 17 C 19.862,16.3 20.462,15.094 19.625,14.375 19.444,14.225 19.219,14.088 19,14 V 15.406 C 19,15.694 18.601,15.981 18.211,15.981 H 17.784 C 17.434,15.981 17,15.694 17,15.406 Z M 15,19 C 12.5,19 11,21.125 11,23 L 10.156,23.005 C 10,23.006 10,23.161 10,23.161 L 9.9963,23.844 C 9.9954,24 10.153,24 10.153,24 H 19.865 C 19.865,24 20.026,24 20.021,23.844 L 20,23.165 C 20,23.165 20,23.01 19.844,23.009 L 19.009,23 C 19.009,21.125 17.5,19 15,19 Z M 15,21 C 17,21 17,22.225 17,23 H 13 C 13,22.25 13,21 15,21 Z"/>
</svg>
