<svg xmlns="http://www.w3.org/2000/svg" width="32" height="32" version="1">
 <rect style="opacity:.2" width="25" height="16" x="3" y="12" rx="1.25" ry="1.25"/>
 <path style="fill:#ec6c85" d="M 3,21.75 C 3,22.442 3.5575,23 4.25,23 h 22.5 C 27.442,23 28,22.442 28,21.75 V 8.25 C 28,7.5575 27.442,7 26.75,7 H 14 V 6.25 C 14,5.5575 13.443,5 12.75,5 H 4.25 C 3.5575,5 3,5.5575 3,6.25"/>
 <rect style="opacity:.2" width="25" height="16" x="3" y="10" rx="1.25" ry="1.25"/>
 <rect style="fill:#e4e4e4" width="21" height="10" x="5" y="9" rx="1.25" ry="1.25"/>
 <rect style="fill:#ec6c85" width="25" height="16" x="3" y="11" rx="1.25" ry="1.25"/>
 <path style="fill:#ffffff;opacity:.1" d="M 4.25,5 C 3.5575,5 3,5.5575 3,6.25 v 1 C 3,6.5575 3.5575,6 4.25,6 h 8.5 C 13.443,6 14,6.5575 14,7.25 V 8 H 26.75 C 27.442,8 28,8.5575 28,9.25 v -1 C 28,7.5575 27.442,7 26.75,7 H 14 V 6.25 C 14,5.5575 13.443,5 12.75,5 Z"/>
 <path style="fill:#695055" d="m9.9902344 14.988281a1.0001 1.0001 0 0 0-0.7636719 1.644531l1.0761715 1.316407c-0.7422346 1.034712-1.1268513 2.468362-1.3007809 4.28125-0.0367464 0.769972 0.7753907 0.769531 0.7753907 0.769531h10.425781s0.835451-1.68e-4 0.794922-0.808594c-0.189021-1.874847-0.601975-3.337697-1.402344-4.373047l1.111328-1.111328a1.0001 1.0001 0 0 0-0.726562-1.716797 1.0001 1.0001 0 0 0-0.6875 0.302735l-1.273438 1.273437c-0.79792-0.371041-1.785583-0.566406-3.019531-0.566406-1.317391 0-2.360855 0.215623-3.185547 0.638672l-1.041015-1.271484a1.0001 1.0001 0 0 0-0.7832036-0.378907z"/>
 <circle style="fill:#ec6c85" cx="12" cy="20" r="1"/>
 <circle style="fill:#ec6c85" cx="-18" cy="20" r="1" transform="scale(-1,1)"/>
</svg>
