<svg xmlns="http://www.w3.org/2000/svg" width="22" height="22" version="1.1">
 <defs>
  <style id="current-color-scheme" type="text/css">
   .ColorScheme-Text { color:#f2f0e7; } .ColorScheme-Highlight { color:#4285f4; }
  </style>
 </defs>
 <path style="fill:currentColor" class="ColorScheme-Text" d="M 10.5,3 A 7.5,7.5 0 0 0 3,10.5 7.5,7.5 0 0 0 10.5,18 7.5,7.5 0 0 0 18,10.5 7.5,7.5 0 0 0 10.5,3 Z m -0.460938,1 h 1.017579 v 1.3847656 c 0.562219,0.021216 1.073156,0.085327 1.529297,0.1914063 0.466747,0.1060791 0.889599,0.2373656 1.271484,0.3964843 L 13.427734,7.1503906 C 13.088281,7.0124878 12.712537,6.8962525 12.298828,6.8007812 11.895727,6.6947021 11.480957,6.6255737 11.056641,6.59375 v 3.197266 c 0.700122,0.20155 1.285204,0.418969 1.751953,0.652343 0.466748,0.222766 0.815454,0.504297 1.048828,0.84375 0.243982,0.328846 0.367187,0.758667 0.367187,1.289063 0,0.742554 -0.276513,1.347705 -0.828125,1.814453 -0.551611,0.456141 -1.332091,0.737671 -2.339843,0.84375 V 17 H 10.039062 V 15.296875 C 9.4556272,15.286267 8.8875491,15.23916 8.3359375,15.154297 7.7843259,15.058826 7.3394533,14.930603 7,14.771484 v -1.351562 c 0.3606691,0.169727 0.8225461,0.318018 1.3847656,0.445312 0.5622196,0.127296 1.1132932,0.196424 1.6542964,0.207032 V 10.857422 C 8.9888789,10.571009 8.220386,10.210315 7.7324219,9.775391 7.2444578,9.340466 7,8.7473025 7,7.9941406 7,7.2091549 7.2695432,6.59397 7.8105469,6.1484375 8.3621585,5.7029051 9.105566,5.4534302 10.039062,5.4003906 Z m 0,2.625 C 9.466235,6.6674317 9.0414307,6.8006713 8.765625,7.0234375 8.5004271,7.2462038 8.3691406,7.5327513 8.3691406,7.8828125 c 0,0.4243166 0.1162353,0.752954 0.3496094,0.9863281 0.2439821,0.2227664 0.6838376,0.4131474 1.320312,0.5722654 z m 1.017579,4.566406 v 2.800782 c 0.625866,-0.06365 1.082726,-0.206921 1.36914,-0.429688 0.286414,-0.233375 0.429688,-0.529956 0.429688,-0.890625 0,-0.403101 -0.12627,-0.704699 -0.38086,-0.90625 -0.25459,-0.201551 -0.728454,-0.393885 -1.417968,-0.574219 z"/>
</svg>
