<svg xmlns="http://www.w3.org/2000/svg" width="22" height="22" version="1.1">
 <defs>
  <style id="current-color-scheme" type="text/css">
   .ColorScheme-Text { color:#f2f0e7; } .ColorScheme-Highlight { color:#4285f4; }
  </style>
 </defs>
 <g transform="translate(3,3)">
  <path style="fill:currentColor" class="ColorScheme-Text" d="M 3,1 A 2,2 0 0 0 1,3 2,2 0 0 0 3,5 2,2 0 0 0 5,3 2,2 0 0 0 3,1 Z M 3,2 A 1,1 0 0 1 4,3 1,1 0 0 1 3,4 1,1 0 0 1 2,3 1,1 0 0 1 3,2 Z M 4,7 H 1 V 14 H 4 V 15 H 15 V 11 H 4 V 12 H 3 V 9 H 4 V 10 H 15 V 4 H 4 Z"/>
 </g>
</svg>
