<svg xmlns="http://www.w3.org/2000/svg" width="22" height="22" version="1.1">
 <defs>
  <style id="current-color-scheme" type="text/css">
   .ColorScheme-Text { color:#f2f0e7; } .ColorScheme-Highlight { color:#4285f4; }
  </style>
 </defs>
 <g transform="translate(3,3)">
  <path style="fill:currentColor" class="ColorScheme-Text" d="M 10,1 V 5 H 15 V 1 Z M 0,2 V 6 H 5 V 2 Z M 11,6 V 10 H 16 V 6 Z M 5,7 V 11 H 10 V 7 Z M 0,12 V 16 H 5 V 12 Z M 6,12 V 16 H 11 V 12 Z"/>
 </g>
</svg>
