<svg xmlns="http://www.w3.org/2000/svg" width="22" height="22" viewBox="0 0 22 22">
 <defs>
  <style id="current-color-scheme" type="text/css">
   .ColorScheme-Text { color:#f2f0e7; } .ColorScheme-Highlight { color:#4285f4; }
  </style>
 </defs>
 <path style="fill:currentColor" class="ColorScheme-Text" d="m 10.603516,3 c -0.108107,0 -0.215097,0.02464 -0.314454,0.074219 L 3.3925781,6.515625 C 3.1528418,6.6352265 3,6.8658019 3,7.15625 l 0,7.654297 c 0,0.266714 0.1506245,0.510636 0.3886719,0.630859 l 6.8964841,3.482422 C 10.385558,18.974584 10.494581,19 10.603516,19 c 0.171646,0 0.3477,-0.09029 0.347656,-0.08984 l 6.86914,-3.46875 c 0.238092,-0.120223 0.388672,-0.364145 0.388672,-0.630859 l 0,-7.6621095 c 0,-0.2679589 -0.152708,-0.513211 -0.392578,-0.6328125 L 10.919922,3.0742188 C 10.820587,3.0246404 10.711623,3 10.603516,3 Z m 0,1.4960938 5.314452,2.6523437 L 10.603516,9.8007812 5.2910156,7.1484375 10.603516,4.4960938 Z m -6.1894535,3.7949218 5.4824219,2.7363284 0,6.117187 -5.4824219,-2.769531 0,-6.0839844 z m 12.3808595,0 0,6.0839844 -5.484375,2.769531 0,-6.117187 5.484375,-2.7363284 z"/>
</svg>
