<svg xmlns="http://www.w3.org/2000/svg" width="22" height="22" version="1.1">
 <defs>
  <style id="current-color-scheme" type="text/css">
   .ColorScheme-Text { color:#f2f0e7; } .ColorScheme-Highlight { color:#4285f4; }
  </style>
 </defs>
 <g transform="matrix(1,0,0,1,3,3)">
  <path class="ColorScheme-Text" d="M 7,2 V 10 L 3.5,6.5 2,8 8,14 14,8 12.5,6.5 9,10 V 2 Z" style="fill:currentColor"/>
 </g>
</svg>
