<svg xmlns="http://www.w3.org/2000/svg" width="22" height="22" version="1.1">
 <defs>
  <style id="current-color-scheme" type="text/css">
   .ColorScheme-Text { color:#f2f0e7; } .ColorScheme-Highlight { color:#4285f4; }
  </style>
 </defs>
 <g transform="translate(3,3)">
  <path style="fill:currentColor" class="ColorScheme-Text" d="M 9,2 C 7,2 6,3 6,5 V 7 H 5 C 4,7 4,8 4,8 4,8 4,9 5,9 H 6 V 14 C 6,15 7,15 7,15 7,15 8,15 8,14 V 9 H 9 C 10,9 10,8 10,8 10,8 10,7 9,7 H 8 V 5 C 8,5 8,4 9,4 10,4 10,3 10,3 10,3 10,2 9,2 Z"/>
 </g>
</svg>
