<svg xmlns="http://www.w3.org/2000/svg" width="22" height="22" viewBox="0 0 22 22">
 <defs>
  <style id="current-color-scheme" type="text/css">
   .ColorScheme-Text { color:#f2f0e7; } .ColorScheme-Highlight { color:#4285f4; }
  </style>
 </defs>
 <path style="fill:currentColor" class="ColorScheme-Text" d="M 3.5 1 C 2.1193 1 1 2.1193 1 3.5 C 1.00013 4.6879 1.83612 5.7116187 3 5.9492188 L 3 9.953125 C 1.8368 10.190545 1.0011 11.213191 1 12.400391 C 1 13.781091 2.1193 14.900391 3.5 14.900391 C 4.8807 14.900391 6 13.781091 6 12.400391 C 5.99987 11.212491 5.16388 10.188772 4 9.9511719 L 4 5.9453125 C 4.38986 5.8671125 4.7554563 5.6970387 5.0664062 5.4492188 L 6.2792969 6.3574219 C 6.0966469 6.7106519 6.0009 7.10233 6 7.5 C 6 8.8807 7.1193 10 8.5 10 C 9.06529 10 9.5812 9.8046412 10 9.4882812 L 10 12 L 8 12 L 11.28125 14.8125 L 11.5 15 L 11.71875 14.8125 L 15 12 L 13 12 L 13 9 L 10.488281 9 C 10.804641 8.58123 11 8.06529 11 7.5 C 11 6.1193 9.8807 5 8.5 5 C 7.90804 5.001 7.3356656 5.2121731 6.8847656 5.5957031 L 5.6914062 4.703125 C 5.8938362 4.334425 5.99998 3.92059 6 3.5 C 6 2.1193 4.8807 1 3.5 1 z" transform="translate(3 3)"/>
</svg>
