<svg xmlns="http://www.w3.org/2000/svg" width="22" height="22" viewBox="0 0 22 22">
 <defs>
  <style id="current-color-scheme" type="text/css">
   .ColorScheme-Text { color:#f2f0e7; } .ColorScheme-Highlight { color:#4285f4; }
  </style>
 </defs>
 <path style="fill:currentColor" class="ColorScheme-Text" d="M 1 3 L 1 13 L 3 13 L 3 3 L 1 3 z M 5 3 L 5 13 L 7 13 L 7 3 L 5 3 z M 9 3 L 9 13 L 11 13 L 11 3 L 9 3 z M 13 3 L 13 13 L 15 13 L 15 3 L 13 3 z" transform="translate(3 3)"/>
</svg>
