<svg xmlns="http://www.w3.org/2000/svg" width="16" height="16" version="1.1">
 <defs>
  <style id="current-color-scheme" type="text/css">
   .ColorScheme-Text { color:#f2f0e7; } .ColorScheme-Highlight { color:#4285f4; }
  </style>
 </defs>
 <path style="fill:currentColor" class="ColorScheme-Text" d="M 3,1 C 3,1 2,1 2,2 V 11 14 C 2,15 3,15 3,15 H 13 C 13,15 14,15 14,14 V 10 H 12 V 13 H 4 V 3 H 12 V 6 H 14 V 2 C 14,1 13,1 13,1 Z M 11,5 6.5,8 11,11 V 9 H 15 V 7 H 11 Z"/>
</svg>
