<svg xmlns="http://www.w3.org/2000/svg" width="16" height="16" version="1.1">
 <defs>
  <style id="current-color-scheme" type="text/css">
   .ColorScheme-Text { color:#f2f0e7; } .ColorScheme-Highlight { color:#4285f4; }
  </style>
 </defs>
 <path style="fill:currentColor" class="ColorScheme-Text" d="M 8,2 C 4.9494,2 2.0806,3.0732 0,5 L 8,14 16,5 C 13.919,3.0731 11.051,2 8,2 Z M 8,4 C 9.11,4 10,4.9 10,6 10,7.11 9.11,8 8,8 V 9 H 7 V 7 H 8 C 8.56,7 9,6.56 9,6 9,5.45 8.56,5 8,5 7.45,5 7,5.45 7,6 H 6 C 6,4.9 6.9,4 8,4 Z M 7,10 H 8 V 11 H 7 Z"/>
</svg>
