<svg xmlns="http://www.w3.org/2000/svg" width="16" height="16" version="1.1">
 <defs>
  <style id="current-color-scheme" type="text/css">
   .ColorScheme-Text { color:#f2f0e7; } .ColorScheme-Highlight { color:#4285f4; }
  </style>
 </defs>
 <path style="fill:currentColor" class="ColorScheme-Text" d="M 8 1 A 7 7 0 0 0 1 8 A 7 7 0 0 0 8 15 A 7 7 0 0 0 11.628906 13.974609 C 12.091267 14.541152 12.52056 15.144628 12.888672 15.742188 L 14.591797 14.693359 C 14.176883 14.019826 13.700613 13.343735 13.175781 12.701172 A 7 7 0 0 0 15 8 A 7 7 0 0 0 8 1 z M 8 3.5 A 4 4.5 0 0 1 12 8 A 4 4.5 0 0 1 11.195312 10.697266 C 9.9551131 9.6760402 8.5414022 8.9230567 7 9.0429688 L 7.1542969 11.035156 C 7.8551595 10.980635 8.7648906 11.360109 9.6972656 12.068359 A 4 4.5 0 0 1 8 12.5 A 4 4.5 0 0 1 4 8 A 4 4.5 0 0 1 8 3.5 z"/>
</svg>
