<svg xmlns="http://www.w3.org/2000/svg" width="16" height="16" version="1.1">
 <defs>
  <style id="current-color-scheme" type="text/css">
   .ColorScheme-Text { color:#f2f0e7; } .ColorScheme-Highlight { color:#4285f4; }
  </style>
 </defs>
 <path style="fill:currentColor" class="ColorScheme-Text" d="m 5.5,-2e-7 c -0.825582,0 -1.5,0.674419 -1.5,1.5 0,0.8255815 0.674418,1.5 1.5,1.5 h 1.500001 v -1.5 c 0,-0.825581 -0.67442,-1.5 -1.500001,-1.5 z m 4.001953,0 c -0.825581,0 -1.5,0.6732269 -1.5,1.4980469 V 5.5019529 C 8.001953,6.326773 8.676372,7 9.501953,7 c 0.825583,0 1.5,-0.673227 1.5,-1.4980471 V 1.4980467 c 0,-0.82482 -0.674417,-1.4980469 -1.5,-1.4980469 z m -8.003906,4 C 0.673227,3.9999998 0,4.6744183 0,5.4999998 0,6.325581 0.673227,7 1.498047,7 h 4.003907 c 0.82482,0 1.4980455,-0.674419 1.4980455,-1.5000002 0,-0.8255815 -0.6732255,-1.5 -1.4980455,-1.5 z m 12.003906,0 c -0.825581,0 -1.499999,0.6744185 -1.499999,1.5 V 7 h 1.499999 c 0.82558,0 1.5,-0.674419 1.5,-1.5000002 0,-0.8255815 -0.67442,-1.5 -1.5,-1.5 z M 1.5,8 C 0.674419,8 0,8.674419 0,9.5 0,10.325582 0.674419,11 1.5,11 2.325582,11 3,10.325582 3,9.5 V 8 Z m 4,0 C 4.674419,8 4,8.673227 4,9.498047 v 4.003906 C 4,14.326773 4.674419,15 5.5,15 6.325581,15 7.000001,14.326773 7.000001,13.501953 V 9.498047 C 7.000001,8.673227 6.325581,8 5.5,8 Z M 9.498048,8 C 8.673227,8 8.000001,8.674419 8.000001,9.5 c 0,0.825581 0.673227,1.5 1.498047,1.5 h 4.003905 C 14.326772,11 15,10.325581 15,9.5 15,8.674419 14.326772,8 13.501953,8 Z m -1.498047,4 v 1.5 c 0,0.825581 0.674419,1.5 1.5,1.5 0.825582,0 1.5,-0.674419 1.5,-1.5 0,-0.825581 -0.674418,-1.5 -1.5,-1.5 z"/>
</svg>
