<svg xmlns="http://www.w3.org/2000/svg" width="16" height="16" version="1.1">
 <defs>
  <style id="current-color-scheme" type="text/css">
   .ColorScheme-Text { color:#f2f0e7; } .ColorScheme-Highlight { color:#4285f4; }
  </style>
 </defs>
 <path style="fill:currentColor" class="ColorScheme-Text" d="m 8.2520475,2.0369678 c -0.04755,0.00494 -0.06843,0.00374 -0.121094,0.00977 C 6.153567,2.2728571 4.5042668,3.5824785 2.617282,6.4256396 2.0475167,7.2841178 1.3135909,8.3875628 0.9883758,8.8768118 c -1.370021,2.0610402 -1.3097847,4.1750332 0.1425781,5.0644532 0.9386734,0.574841 1.8454108,0.80382 3.28125,0.826172 0.7217028,0.01124 1.7778909,0.06688 2.3476562,0.123047 1.5896664,0.156726 1.7892824,0.151974 2.9082034,-0.05664 1.2523285,-0.23348 2.2183025,-0.719073 2.9941395,-1.505859 0.421615,-0.427565 0.955163,-1.371025 1.296875,-2.164063 -0.0388,-0.07907 -0.07539,-0.156601 -0.123045,-0.242187 -0.115525,0.08643 -0.217312,0.208164 -0.339844,0.277344 -0.165145,0.09324 -0.330536,0.176222 -0.570313,0.226562 -0.239778,0.05034 -0.709854,0.100418 -1.107422,-0.314453 -0.356655,-0.372092 -0.286015,-0.578485 -0.291015,-0.705078 -0.005,-0.126593 0.0071,-0.207549 0.01953,-0.287109 0.02487,-0.1591262 0.06258,-0.2973872 0.117187,-0.4472662 -0.05289,0.145176 0.02087,-0.110336 0.04883,-0.347657 0.02696,-0.228853 0.04995,-0.517296 0.0625,-0.791015 -0.197206,0.01739 -0.315434,0.03179 -0.527344,0.04883 -0.448369,0.03606 -0.672003,0.08321 -1.070313,0.01367 -0.1991545,-0.03477 -0.5440205,-0.153448 -0.7675785,-0.458986 -0.223557,-0.305538 -0.222656,-0.589297 -0.222656,-0.722656 0,-0.7144752 0.265573,-1.0182587 0.537109,-1.4453124 C 9.8664645,5.7456567 10.07431,5.5651487 10.248141,5.3611865 10.083342,5.2725584 9.9304495,5.1870696 9.7540005,5.0975146 9.2341255,4.833657 8.9803565,4.7424966 8.6407195,4.4490772 8.5558105,4.3757223 8.4540455,4.2814074 8.3555635,4.1014209 8.2570815,3.9214344 8.1898405,3.6193884 8.2422825,3.3611865 c 0.104883,-0.5164037 0.368689,-0.6340224 0.474609,-0.7148437 0.02107,-0.016081 0.03616,-0.010522 0.05664,-0.025391 -0.106907,-0.1129199 -0.312663,-0.2189532 -0.386719,-0.3261719 -0.0627,-0.090772 -0.091,-0.1703412 -0.134766,-0.2578125 z m -0.357422,3.4707031 c 0.08034,-0.010504 0.158135,-0.010079 0.230469,0.00195 0.09644,0.016043 0.181184,0.054231 0.246094,0.1191406 0.259638,0.2596388 0.09122,0.8501845 -0.197266,1.1386719 -0.288487,0.2884874 -0.734502,0.3123734 -0.99414,0.052734 -0.2596393,-0.2596357 -0.2357537,-0.70565 0.05273,-0.9941371 0.162274,-0.1622742 0.421095,-0.2868489 0.662109,-0.3183594 z M 3.3946257,7.5076708 c 0.080338,-0.0105 0.1581348,-0.01008 0.2304688,0.002 0.096445,0.01604 0.1811839,0.05423 0.2460938,0.119141 0.2596387,0.259639 0.091222,0.850184 -0.1972657,1.138672 -0.2884872,0.288487 -0.7345022,0.312373 -0.9941406,0.05273 -0.2596387,-0.259639 -0.2357531,-0.705653 0.052734,-0.99414 0.1622744,-0.162275 0.4210946,-0.286849 0.6621093,-0.31836 z m 3,0.5 c 0.080338,-0.0105 0.1581348,-0.01008 0.2304688,0.002 0.096445,0.01604 0.181184,0.05423 0.2460938,0.119141 0.2596382,0.259639 0.091222,0.850184 -0.1972657,1.138672 -0.2884871,0.288487 -0.7345022,0.312373 -0.9941406,0.05273 -0.2596388,-0.259639 -0.2357532,-0.705653 0.052734,-0.99414 0.1622743,-0.162275 0.4210946,-0.286849 0.6621093,-0.31836 z m 3.4999998,1.5 c 0.08034,-0.0105 0.1581355,-0.01008 0.2304685,0.0019 0.09644,0.01604 0.181184,0.05423 0.246094,0.119141 0.259639,0.259639 0.09122,0.8501832 -0.197266,1.1386722 -0.2884865,0.288488 -0.7345015,0.312374 -0.9941405,0.05273 -0.259638,-0.25963 -0.235753,-0.705646 0.05274,-0.9941332 0.162274,-0.162275 0.421095,-0.286849 0.662109,-0.31836 z M 2.3946257,10.507671 c 0.080338,-0.0105 0.1581348,-0.01008 0.2304688,0.002 0.096445,0.01604 0.1811839,0.05423 0.2460938,0.11914 0.2596387,0.259639 0.091222,0.850184 -0.1972657,1.138672 -0.288487,0.288488 -0.7345022,0.312369 -0.9941406,0.05273 -0.2596388,-0.259637 -0.2357533,-0.705653 0.052734,-0.99414 0.1622743,-0.162275 0.4210946,-0.286848 0.6621093,-0.31836 z m 3.5,1 c 0.080338,-0.0105 0.1581348,-0.01008 0.2304688,0.002 0.096445,0.01604 0.181184,0.05423 0.2460938,0.11914 0.2596386,0.259639 0.091222,0.850184 -0.1972657,1.138672 -0.2884872,0.288488 -0.7345022,0.312369 -0.9941406,0.05273 -0.2596387,-0.259637 -0.2357532,-0.705653 0.052734,-0.99414 0.1622744,-0.162275 0.4210946,-0.286848 0.6621093,-0.31836 z m 2.9999998,1 c 0.08034,-0.0105 0.158135,-0.01008 0.230469,0.002 0.09644,0.01604 0.181184,0.05423 0.246094,0.11914 0.259638,0.259639 0.09122,0.850184 -0.197266,1.138672 -0.288487,0.288487 -0.734502,0.312368 -0.99414,0.05273 -0.259639,-0.259637 -0.235754,-0.705653 0.05273,-0.99414 0.162274,-0.162275 0.421094,-0.286848 0.662109,-0.31836 z"/>
 <path style="fill:currentColor" class="ColorScheme-Text" d="m 9.0774685,0.9998633 c -0.07769,0 -0.100194,0.1507608 -0.05231,0.3498498 0,0 0.137654,0.6352521 1.0612635,1.1005522 0.64239,0.3024587 0.641233,0.4772538 -0.0042,0.6586217 -0.2812845,0.079039 -0.6231345,0.2289404 -0.7595535,0.3330323 -0.224992,0.1716779 -0.142875,0.2424764 0.8834615,0.7633842 0.622295,0.315841 1.246763,0.6663798 1.38754,0.7790985 0.244416,0.1956995 0.233272,0.2231126 -0.243586,0.602657 -0.532381,0.423711 -1.162218,1.4143158 -1.162218,1.8278198 0,0.22355 0.103914,0.241711 0.980683,0.171204 0.539377,-0.04338 1.132859,-0.09797 1.318851,-0.121304 l 0.338167,-0.04246 -0.04835,1.124537 c -0.02655,0.618443 -0.104258,1.278318 -0.172782,1.4663932 -0.06853,0.188074 -0.09708,0.370676 -0.0634,0.405814 0.141765,0.147935 0.720057,-0.178575 1.116743,-0.6305032 0.405545,-0.462016 0.431326,-0.471523 0.517554,-0.188019 0.290386,0.5082312 0.418923,0.9534292 0.869506,1.3988122 0.100624,0.0094 0.177396,-0.113145 0.24195,-0.365803 0.198761,-0.7778452 0.0923,-1.5307682 -0.326263,-2.3083482 C 14.734974,7.9061968 14.51405,7.2458778 14.469388,6.857707 14.424728,6.4695364 14.351171,6.0179933 14.306115,5.8541974 c -0.06846,-0.2488979 0.0643,-0.3941723 0.808166,-0.8844113 0.846995,-0.5582031 1.065611,-0.8757713 0.745289,-1.0823568 -0.07959,-0.051327 -0.498802,0.1037798 -0.931808,0.3446122 -0.433003,0.2408312 -0.87243,0.4377942 -0.976456,0.4377942 -0.104026,0 -0.430468,-0.3014963 -0.72521,-0.6699249 -0.512243,-0.6403062 -0.535783,-0.7135061 -0.535783,-1.6585474 0,-0.8979654 -0.02613,-0.9925035 -0.285064,-1.0310782 -0.209286,-0.031179 -0.330508,0.072031 -0.455997,0.3881707 -0.09402,0.2368531 -0.218381,0.4306264 -0.276344,0.4306264 -0.05796,0 -0.634942,-0.254075 -1.282129,-0.5646115 C 9.7435905,1.2539386 9.1525325,0.9998633 9.0774775,0.9998633 Z"/>
</svg>
