<svg xmlns="http://www.w3.org/2000/svg" width="16" height="16" version="1.1">
 <defs>
  <style id="current-color-scheme" type="text/css">
   .ColorScheme-Text { color:#f2f0e7; } .ColorScheme-Highlight { color:#4285f4; }
  </style>
 </defs>
 <path style="fill:currentColor" class="ColorScheme-Text" d="M 11.881,8.5 C 11.861,6.5 13.534,5.5 13.608,5.5 12.668,4.1 11.204,3.9 10.683,3.9 9.4366,3.7 8.2514,4.6 7.6191,4.6 6.9884,4.6 6.0126,3.9 4.9792,3.9 3.6211,3.9 2.3689,4.7 1.6696,5.9 0.2586,8.4 1.3083,12 2.6835,14 3.3555,14.9 4.1568,16 5.2089,16 6.2221,16 6.6052,15.3 7.8301,15.3 9.055,15.3 9.3993,16 10.472,16 11.562,16 12.253,15 12.92,14 13.691,12.9 14.009,11.8 14.028,11.7 14.004,11.7 11.902,10.9 11.881,8.5 Z M 9.8664,2.6 C 10.425,1.9 10.802,0.9 10.699,0 9.8946,0 8.9196,0.5 8.3425,1.2 7.8247,1.8 7.3714,2.8 7.4929,3.7 8.3908,3.8 9.3074,3.2 9.8664,2.6 Z"/>
</svg>
